%!PS-Adobe-3.0 
%%Creator: MATLAB, The MathWorks, Inc. Version 7.14.0.739 (R2012a). Operating System: Darwin 14.4.0 Darwin Kernel Version 14.4.0: Thu May 28 11:35:04 PDT 2015; root:xnu-2782.30.5~1/RELEASE_X86_64 x86_64.
%%Title: ./hi.ps
%%CreationDate: 09/25/2015  16:38:11
%%DocumentNeededFonts: Helvetica
%%DocumentProcessColors: Cyan Magenta Yellow Black
%%LanguageLevel: 2
%%Pages: (atend)
%%BoundingBox: (atend)
%%EndComments

%%BeginProlog
% MathWorks dictionary
/MathWorks 160 dict begin
% definition operators
/bdef {bind def} bind def
/ldef {load def} bind def
/xdef {exch def} bdef
/xstore {exch store} bdef
% operator abbreviations
/c  /clip ldef
/cc /concat ldef
/cp /closepath ldef
/gr /grestore ldef
/gs /gsave ldef
/mt /moveto ldef
/np /newpath ldef
/cm /currentmatrix ldef
/sm /setmatrix ldef
/rm /rmoveto ldef
/rl /rlineto ldef
/s {show newpath} bdef
/sc {setcmykcolor} bdef
/sr /setrgbcolor ldef
/sg /setgray ldef
/w /setlinewidth ldef
/j /setlinejoin ldef
/cap /setlinecap ldef
/rc {rectclip} bdef
/rf {rectfill} bdef
% page state control
/pgsv () def
/bpage {/pgsv save def} bdef
/epage {pgsv restore} bdef
/bplot /gsave ldef
/eplot {stroke grestore} bdef
% orientation switch
/portraitMode 0 def /landscapeMode 1 def /rotateMode 2 def
% coordinate system mappings
/dpi2point 0 def
% font control
/FontSize 0 def
/FMS {/FontSize xstore findfont [FontSize 0 0 FontSize neg 0 0]
  makefont setfont} bdef
/reencode {exch dup where {pop load} {pop StandardEncoding} ifelse
  exch dup 3 1 roll findfont dup length dict begin
  { 1 index /FID ne {def}{pop pop} ifelse } forall
  /Encoding exch def currentdict end definefont pop} bdef
/isroman {findfont /CharStrings get /Agrave known} bdef
/FMSR {3 1 roll 1 index dup isroman {reencode} {pop pop} ifelse
  exch FMS} bdef
/csm {1 dpi2point div -1 dpi2point div scale neg translate
 dup landscapeMode eq {pop -90 rotate}
  {rotateMode eq {90 rotate} if} ifelse} bdef
% line types: solid, dotted, dashed, dotdash
/SO { [] 0 setdash } bdef
/DO { [.5 dpi2point mul 4 dpi2point mul] 0 setdash } bdef
/DA { [6 dpi2point mul] 0 setdash } bdef
/DD { [.5 dpi2point mul 4 dpi2point mul 6 dpi2point mul 4
  dpi2point mul] 0 setdash } bdef
% macros for lines and objects
/L {lineto stroke} bdef
/MP {3 1 roll moveto 1 sub {rlineto} repeat} bdef
/AP {{rlineto} repeat} bdef
/PDlw -1 def
/W {/PDlw currentlinewidth def setlinewidth} def
/PP {closepath eofill} bdef
/DP {closepath stroke} bdef
/MR {4 -2 roll moveto dup  0 exch rlineto exch 0 rlineto
  neg 0 exch rlineto closepath} bdef
/FR {MR stroke} bdef
/PR {MR fill} bdef
/L1i {{currentfile picstr readhexstring pop} image} bdef
/tMatrix matrix def
/MakeOval {newpath tMatrix currentmatrix pop translate scale
0 0 1 0 360 arc tMatrix setmatrix} bdef
/FO {MakeOval stroke} bdef
/PO {MakeOval fill} bdef
/PD {currentlinewidth 2 div 0 360 arc fill
   PDlw -1 eq not {PDlw w /PDlw -1 def} if} def
/FA {newpath tMatrix currentmatrix pop translate scale
  0 0 1 5 -2 roll arc tMatrix setmatrix stroke} bdef
/PA {newpath tMatrix currentmatrix pop	translate 0 0 moveto scale
  0 0 1 5 -2 roll arc closepath tMatrix setmatrix fill} bdef
/FAn {newpath tMatrix currentmatrix pop translate scale
  0 0 1 5 -2 roll arcn tMatrix setmatrix stroke} bdef
/PAn {newpath tMatrix currentmatrix pop translate 0 0 moveto scale
  0 0 1 5 -2 roll arcn closepath tMatrix setmatrix fill} bdef
/vradius 0 def /hradius 0 def /lry 0 def
/lrx 0 def /uly 0 def /ulx 0 def /rad 0 def
/MRR {/vradius xdef /hradius xdef /lry xdef /lrx xdef /uly xdef
  /ulx xdef newpath tMatrix currentmatrix pop ulx hradius add uly
  vradius add translate hradius vradius scale 0 0 1 180 270 arc 
  tMatrix setmatrix lrx hradius sub uly vradius add translate
  hradius vradius scale 0 0 1 270 360 arc tMatrix setmatrix
  lrx hradius sub lry vradius sub translate hradius vradius scale
  0 0 1 0 90 arc tMatrix setmatrix ulx hradius add lry vradius sub
  translate hradius vradius scale 0 0 1 90 180 arc tMatrix setmatrix
  closepath} bdef
/FRR {MRR stroke } bdef
/PRR {MRR fill } bdef
/MlrRR {/lry xdef /lrx xdef /uly xdef /ulx xdef /rad lry uly sub 2 div def
  newpath tMatrix currentmatrix pop ulx rad add uly rad add translate
  rad rad scale 0 0 1 90 270 arc tMatrix setmatrix lrx rad sub lry rad
  sub translate rad rad scale 0 0 1 270 90 arc tMatrix setmatrix
  closepath} bdef
/FlrRR {MlrRR stroke } bdef
/PlrRR {MlrRR fill } bdef
/MtbRR {/lry xdef /lrx xdef /uly xdef /ulx xdef /rad lrx ulx sub 2 div def
  newpath tMatrix currentmatrix pop ulx rad add uly rad add translate
  rad rad scale 0 0 1 180 360 arc tMatrix setmatrix lrx rad sub lry rad
  sub translate rad rad scale 0 0 1 0 180 arc tMatrix setmatrix
  closepath} bdef
/FtbRR {MtbRR stroke } bdef
/PtbRR {MtbRR fill } bdef
/stri 6 array def /dtri 6 array def
/smat 6 array def /dmat 6 array def
/tmat1 6 array def /tmat2 6 array def /dif 3 array def
/asub {/ind2 exch def /ind1 exch def dup dup
  ind1 get exch ind2 get sub exch } bdef
/tri_to_matrix {
  2 0 asub 3 1 asub 4 0 asub 5 1 asub
  dup 0 get exch 1 get 7 -1 roll astore } bdef
/compute_transform {
  dmat dtri tri_to_matrix tmat1 invertmatrix 
  smat stri tri_to_matrix tmat2 concatmatrix } bdef
/ds {stri astore pop} bdef
/dt {dtri astore pop} bdef
/db {2 copy /cols xdef /rows xdef mul dup string
  currentfile 
  3 index 0 eq {/ASCIIHexDecode filter}
  {/ASCII85Decode filter 3 index 2 eq {/RunLengthDecode filter} if }
  ifelse exch readstring pop
  /bmap xdef pop pop} bdef
/it {gs np dtri aload pop moveto lineto lineto cp c
  cols rows 8 compute_transform 
  {bmap} image gr}bdef
/il {newpath moveto lineto stroke}bdef
currentdict end def
%%EndProlog

%%BeginSetup
MathWorks begin

0 cap

end
%%EndSetup

%%Page: 1 1
%%BeginPageSetup
%%PageBoundingBox:    73   215   552   589
MathWorks begin
bpage
%%EndPageSetup

%%BeginObject: obj1
bplot

/dpi2point 12 def
portraitMode 0216 7344 csm

  664   274  5745  4489 rc
85 dict begin %Colortable dictionary
/c0 { 0.000000 0.000000 0.000000 sr} bdef
/c1 { 1.000000 1.000000 1.000000 sr} bdef
/c2 { 0.900000 0.000000 0.000000 sr} bdef
/c3 { 0.000000 0.820000 0.000000 sr} bdef
/c4 { 0.000000 0.000000 0.800000 sr} bdef
/c5 { 0.910000 0.820000 0.320000 sr} bdef
/c6 { 1.000000 0.260000 0.820000 sr} bdef
/c7 { 0.000000 0.820000 0.820000 sr} bdef
c0
1 j
1 sg
   0    0 6918 5189 rf
6 w
0 4228 5361 0 0 -4228 899 4617 4 MP
PP
-5361 0 0 4228 5361 0 0 -4228 899 4617 5 MP stroke
4 w
DO
SO
6 w
0 sg
 899 4617 mt 6260 4617 L
 899 4617 mt  899  389 L
 899 4617 mt  899 4563 L
%%IncludeResource: font Helvetica
/Helvetica /ISOLatin1Encoding 120 FMSR

 833 4762 mt 
(40) s
1792 4617 mt 1792 4563 L
1726 4762 mt 
(60) s
2686 4617 mt 2686 4563 L
2620 4762 mt 
(80) s
3579 4617 mt 3579 4563 L
3479 4762 mt 
(100) s
4473 4617 mt 4473 4563 L
4373 4762 mt 
(120) s
5366 4617 mt 5366 4563 L
5266 4762 mt 
(140) s
6260 4617 mt 6260 4563 L
6160 4762 mt 
(160) s
 899 4617 mt  952 4617 L
 731 4661 mt 
(40) s
 899 4013 mt  952 4013 L
 731 4057 mt 
(60) s
 899 3409 mt  952 3409 L
 731 3453 mt 
(80) s
 899 2805 mt  952 2805 L
 664 2849 mt 
(100) s
 899 2201 mt  952 2201 L
 664 2245 mt 
(120) s
 899 1597 mt  952 1597 L
 664 1641 mt 
(140) s
 899  993 mt  952  993 L
 664 1037 mt 
(160) s
 899  389 mt  952  389 L
 664  433 mt 
(180) s
gs 899 389 5362 4229 rc
0 j
gs 3013 2375 79 79 rc
  18   18 3052 2414 FO
gr

gs 4856 3367 79 79 rc
  18   18 4895 3406 FO
gr

gs 5084 3130 79 79 rc
  18   18 5123 3169 FO
gr

gs 3249 1750 79 79 rc
  18   18 3288 1789 FO
gr

gs 2834 1159 79 79 rc
  18   18 2873 1198 FO
gr

gs 4019 3737 79 79 rc
  18   18 4058 3776 FO
gr

gs 4922 2569 79 79 rc
  18   18 4961 2608 FO
gr

gs 2606 2819 79 79 rc
  18   18 2645 2858 FO
gr

gs 5546 3810 79 79 rc
  18   18 5585 3849 FO
gr

gs 2484 2009 78 79 rc
  18   18 2523 2048 FO
gr

gs 5346 3391 79 78 rc
  18   18 5385 3429 FO
gr

gs 4547 3054 79 78 rc
  18   18 4586 3093 FO
gr

gs 2828 1934 79 79 rc
  18   18 2867 1973 FO
gr

gs 4573 2668 79 79 rc
  18   18 4612 2707 FO
gr

gs 3935 3232 79 79 rc
  18   18 3974 3271 FO
gr

gs 4898 2771 78 79 rc
  18   18 4937 2810 FO
gr

gs 3259 2321 79 79 rc
  18   18 3298 2360 FO
gr

gs 3346 1933 79 79 rc
  18   18 3385 1972 FO
gr

gs 3052 1958 79 79 rc
  18   18 3091 1997 FO
gr

gs 5195 3238 79 79 rc
  18   18 5234 3277 FO
gr

gs 5171 2445 79 79 rc
  18   18 5210 2484 FO
gr

gs 3702 3692 79 78 rc
  18   18 3741 3731 FO
gr

gs 3813 1693 78 79 rc
  18   18 3852 1732 FO
gr

gs 4625 2866 78 79 rc
  18   18 4664 2905 FO
gr

gs 1853 2635 79 79 rc
  18   18 1892 2674 FO
gr

gs 4688 3550 79 79 rc
  18   18 4727 3589 FO
gr

gs 3456 2425 79 79 rc
  18   18 3495 2464 FO
gr

gs 3856 3640 79 79 rc
  18   18 3895 3679 FO
gr

gs 3050 2021 79 79 rc
  18   18 3089 2060 FO
gr

gs 3402 2358 79 79 rc
  18   18 3441 2397 FO
gr

gs 2427 2038 79 79 rc
  18   18 2466 2077 FO
gr

gs 3963 3026 79 79 rc
  18   18 4002 3065 FO
gr

gs 5149 3240 79 79 rc
  18   18 5188 3279 FO
gr

gs 2699 2185 79 79 rc
  18   18 2738 2224 FO
gr

gs 3597 1841 79 78 rc
  18   18 3636 1879 FO
gr

gs 2553 1828 79 79 rc
  18   18 2592 1867 FO
gr

gs 4930 3616 78 79 rc
  18   18 4968 3655 FO
gr

gs 2235 2611 79 79 rc
  18   18 2274 2650 FO
gr

gs 2388 2144 78 79 rc
  18   18 2426 2183 FO
gr

gs 2865 2404 79 79 rc
  18   18 2904 2443 FO
gr

gs 3718 2182 79 79 rc
  18   18 3757 2221 FO
gr

gs 3293 2047 79 78 rc
  18   18 3332 2085 FO
gr

gs 3467 2434 79 79 rc
  18   18 3506 2473 FO
gr

gs 4133 3319 79 79 rc
  18   18 4172 3358 FO
gr

gs 2388 2086 79 79 rc
  18   18 2427 2125 FO
gr

gs 4212 3089 79 79 rc
  18   18 4251 3128 FO
gr

gs 5107 2697 79 78 rc
  18   18 5146 2735 FO
gr

gs 4747 3374 79 79 rc
  18   18 4786 3413 FO
gr

gs 4716 3789 79 79 rc
  18   18 4755 3828 FO
gr

gs 4907 2446 79 79 rc
  18   18 4946 2485 FO
gr

gs 3270 1636 79 79 rc
  18   18 3309 1675 FO
gr

gs 4653 2548 79 79 rc
  18   18 4692 2587 FO
gr

gs 3597 2358 79 79 rc
  18   18 3636 2397 FO
gr

gs 4548 2711 79 79 rc
  18   18 4587 2750 FO
gr

gs 3770 3356 79 79 rc
  18   18 3809 3395 FO
gr

gs 3519 2361 79 79 rc
  18   18 3558 2400 FO
gr

gs 3423 1867 79 79 rc
  18   18 3462 1906 FO
gr

gs 2928 2152 79 79 rc
  18   18 2967 2191 FO
gr

gs 3014 680 79 79 rc
  18   18 3053  719 FO
gr

gs 2749 1538 79 79 rc
  18   18 2788 1577 FO
gr

gs 4131 3200 79 79 rc
  18   18 4170 3239 FO
gr

gs 2511 2531 79 79 rc
  18   18 2550 2570 FO
gr

gs 4518 2927 79 79 rc
  18   18 4557 2966 FO
gr

gs 4285 2922 79 79 rc
  18   18 4324 2961 FO
gr

gs 5274 3091 79 79 rc
  18   18 5313 3130 FO
gr

gs 3324 2214 79 79 rc
  18   18 3363 2253 FO
gr

gs 3351 2245 79 79 rc
  18   18 3390 2284 FO
gr

gs 2870 1511 78 78 rc
  18   18 2908 1549 FO
gr

gs 4112 2607 79 78 rc
  18   18 4151 2645 FO
gr

gs 4188 2908 78 79 rc
  18   18 4227 2947 FO
gr

gs 5224 3200 79 79 rc
  18   18 5263 3239 FO
gr

gs 2685 2288 79 79 rc
  18   18 2724 2327 FO
gr

gs 1997 2114 79 78 rc
  18   18 2036 2152 FO
gr

gs 3076 2128 79 79 rc
  18   18 3115 2167 FO
gr

gs 3726 1665 79 79 rc
  18   18 3765 1704 FO
gr

gs 4708 3570 79 78 rc
  18   18 4747 3609 FO
gr

gs 4615 3358 79 78 rc
  18   18 4654 3397 FO
gr

gs 3731 3732 78 79 rc
  18   18 3769 3771 FO
gr

gs 2921 2507 79 79 rc
  18   18 2960 2546 FO
gr

gs 3602 2153 79 79 rc
  18   18 3641 2192 FO
gr

gs 4055 2866 78 79 rc
  18   18 4094 2905 FO
gr

gs 4713 3342 79 79 rc
  18   18 4752 3381 FO
gr

gs 3521 2070 79 79 rc
  18   18 3560 2109 FO
gr

gs 2934 2334 79 79 rc
  18   18 2973 2373 FO
gr

gs 5318 2971 79 79 rc
  18   18 5357 3010 FO
gr

gs 3235 2032 78 79 rc
  18   18 3273 2071 FO
gr

gs 5029 2300 79 79 rc
  18   18 5068 2339 FO
gr

gs 5914 3010 79 79 rc
  18   18 5953 3049 FO
gr

gs 4845 3297 79 79 rc
  18   18 4884 3336 FO
gr

gs 3190 1409 79 79 rc
  18   18 3229 1448 FO
gr

gs 4361 3164 79 79 rc
  18   18 4400 3203 FO
gr

gs 3087 1525 79 79 rc
  18   18 3126 1564 FO
gr

gs 4630 2857 79 79 rc
  18   18 4669 2896 FO
gr

gs 5421 2689 79 79 rc
  18   18 5460 2728 FO
gr

gs 4677 2770 79 79 rc
  18   18 4716 2809 FO
gr

gs 3042 2091 79 78 rc
  18   18 3081 2129 FO
gr

gs 2978 2220 79 79 rc
  18   18 3017 2259 FO
gr

gs 4901 2746 79 79 rc
  18   18 4940 2785 FO
gr

gs 5430 4514 79 79 rc
  18   18 5469 4553 FO
gr

gs 4302 2690 79 79 rc
  18   18 4341 2729 FO
gr

gs 2897 2081 79 79 rc
  18   18 2936 2120 FO
gr

gs 4255 2947 79 78 rc
  18   18 4294 2985 FO
gr

gs 2413 1889 79 79 rc
  18   18 2452 1928 FO
gr

gs 4599 3066 79 79 rc
  18   18 4638 3105 FO
gr

gs 4716 3200 78 79 rc
  18   18 4754 3239 FO
gr

gs 3271 1675 79 78 rc
  18   18 3310 1714 FO
gr

gs 3842 3115 79 79 rc
  18   18 3881 3154 FO
gr

gs 2483 2863 78 79 rc
  18   18 2522 2902 FO
gr

gs 3287 1985 79 79 rc
  18   18 3326 2024 FO
gr

gs 4455 3346 79 78 rc
  18   18 4494 3385 FO
gr

gs 1980 1385 79 79 rc
  18   18 2019 1424 FO
gr

gs 3546 2217 79 79 rc
  18   18 3585 2256 FO
gr

gs 3865 2958 79 79 rc
  18   18 3904 2997 FO
gr

gs 1993 1945 78 78 rc
  18   18 2032 1984 FO
gr

gs 5755 3351 79 79 rc
  18   18 5794 3390 FO
gr

gs 1959 2868 79 79 rc
  18   18 1998 2907 FO
gr

gs 3435 1396 79 79 rc
  18   18 3474 1435 FO
gr

gs 2230 1529 79 79 rc
  18   18 2269 1568 FO
gr

gs 3836 1965 79 79 rc
  18   18 3875 2004 FO
gr

gs 2610 1856 79 79 rc
  18   18 2649 1895 FO
gr

gs 3311 1866 79 79 rc
  18   18 3350 1905 FO
gr

gs 4797 3387 79 79 rc
  18   18 4836 3426 FO
gr

gs 3675 2276 79 79 rc
  18   18 3714 2315 FO
gr

gs 4861 2998 79 79 rc
  18   18 4900 3037 FO
gr

gs 3517 1806 79 79 rc
  18   18 3556 1845 FO
gr

gs 4189 3042 79 79 rc
  18   18 4228 3081 FO
gr

gs 4773 3608 79 79 rc
  18   18 4812 3647 FO
gr

gs 1742 2650 79 79 rc
  18   18 1781 2689 FO
gr

gs 3874 2848 79 79 rc
  18   18 3913 2887 FO
gr

gs 3085 2675 79 79 rc
  18   18 3124 2714 FO
gr

gs 4330 2848 79 79 rc
  18   18 4369 2887 FO
gr

gs 4650 3453 79 79 rc
  18   18 4689 3492 FO
gr

gs 4519 3596 79 79 rc
  18   18 4558 3635 FO
gr

gs 4134 3460 79 79 rc
  18   18 4173 3499 FO
gr

gs 3057 2088 79 79 rc
  18   18 3096 2127 FO
gr

gs 2548 2208 79 79 rc
  18   18 2587 2247 FO
gr

gs 4277 3063 78 78 rc
  18   18 4316 3101 FO
gr

gs 4649 3284 79 79 rc
  18   18 4688 3323 FO
gr

gs 5487 4499 79 79 rc
  18   18 5526 4538 FO
gr

gs 4621 3502 79 79 rc
  18   18 4660 3541 FO
gr

gs 4088 3144 79 79 rc
  18   18 4127 3183 FO
gr

gs 2364 2455 79 79 rc
  18   18 2403 2494 FO
gr

gs 5080 3378 79 79 rc
  18   18 5119 3417 FO
gr

gs 4058 3116 79 79 rc
  18   18 4097 3155 FO
gr

gs 4596 3316 79 79 rc
  18   18 4635 3355 FO
gr

gs 4963 3315 79 79 rc
  18   18 5002 3354 FO
gr

gs 4014 3693 78 79 rc
  18   18 4053 3732 FO
gr

gs 5499 3666 79 78 rc
  18   18 5538 3704 FO
gr

gs 3533 1782 79 79 rc
  18   18 3572 1821 FO
gr

gs 4135 3337 79 79 rc
  18   18 4174 3376 FO
gr

gs 2558 2450 79 79 rc
  18   18 2597 2489 FO
gr

gs 3675 3079 79 79 rc
  18   18 3714 3118 FO
gr

gs 2262 2712 79 79 rc
  18   18 2301 2751 FO
gr

gs 3197 2650 79 79 rc
  18   18 3236 2689 FO
gr

gs 1579 1988 79 79 rc
  18   18 1618 2027 FO
gr

gs 1958 1633 79 78 rc
  18   18 1997 1672 FO
gr

gs 2854 2462 79 79 rc
  18   18 2893 2501 FO
gr

gs 4140 1966 79 78 rc
  18   18 4179 2004 FO
gr

gs 4863 3050 79 79 rc
  18   18 4902 3089 FO
gr

gs 4189 2682 78 79 rc
  18   18 4227 2721 FO
gr

gs 2995 2192 79 79 rc
  18   18 3034 2231 FO
gr

gs 4097 2734 79 79 rc
  18   18 4136 2773 FO
gr

gs 2762 1554 78 79 rc
  18   18 2800 1593 FO
gr

gs 3630 1912 79 79 rc
  18   18 3669 1951 FO
gr

gs 2953 2509 79 79 rc
  18   18 2992 2548 FO
gr

gs 2566 2597 79 79 rc
  18   18 2605 2636 FO
gr

gs 4953 3063 79 79 rc
  18   18 4992 3102 FO
gr

gs 3586 3949 79 79 rc
  18   18 3625 3988 FO
gr

gs 3079 1919 79 79 rc
  18   18 3118 1958 FO
gr

gs 3235 2405 79 79 rc
  18   18 3274 2444 FO
gr

gs 3240 1853 79 79 rc
  18   18 3279 1892 FO
gr

gs 4131 2967 79 78 rc
  18   18 4170 3006 FO
gr

gs 3115 2041 79 78 rc
  18   18 3154 2079 FO
gr

gs 2448 2313 79 79 rc
  18   18 2487 2352 FO
gr

gs 5117 3218 79 79 rc
  18   18 5156 3257 FO
gr

gs 4534 3449 79 79 rc
  18   18 4573 3488 FO
gr

gs 4869 2868 79 79 rc
  18   18 4908 2907 FO
gr

gs 3798 3216 79 79 rc
  18   18 3837 3255 FO
gr

gs 3201 2035 79 79 rc
  18   18 3240 2074 FO
gr

gs 5317 3310 79 79 rc
  18   18 5356 3349 FO
gr

gs 5494 2638 79 79 rc
  18   18 5533 2677 FO
gr

gs 5041 2247 79 78 rc
  18   18 5080 2285 FO
gr

gs 3731 3325 78 79 rc
  18   18 3770 3364 FO
gr

gs 3693 1324 79 79 rc
  18   18 3732 1363 FO
gr

gs 5046 3327 79 78 rc
  18   18 5085 3366 FO
gr

gs 5138 3566 79 79 rc
  18   18 5177 3605 FO
gr

gs 2556 2514 79 79 rc
  18   18 2595 2553 FO
gr

gs 4839 2999 78 79 rc
  18   18 4877 3038 FO
gr

gs 2648 1655 78 79 rc
  18   18 2687 1694 FO
gr

gs 4276 3601 78 79 rc
  18   18 4315 3640 FO
gr

gs 4161 1863 79 79 rc
  18   18 4200 1902 FO
gr

gs 3778 3801 79 79 rc
  18   18 3817 3840 FO
gr

gs 5490 3055 79 79 rc
  18   18 5529 3094 FO
gr

gs 4930 2472 79 79 rc
  18   18 4969 2511 FO
gr

gs 3652 2117 79 78 rc
  18   18 3691 2156 FO
gr

gs 3297 2669 78 79 rc
  18   18 3335 2708 FO
gr

gs 1672 950 79 79 rc
  18   18 1711  989 FO
gr

gs 3270 2104 79 79 rc
  18   18 3309 2143 FO
gr

gs 3011 1251 79 79 rc
  18   18 3050 1290 FO
gr

gs 4016 3258 78 79 rc
  18   18 4055 3297 FO
gr

gs 4457 2747 79 79 rc
  18   18 4496 2786 FO
gr

gs 3162 2082 79 79 rc
  18   18 3201 2121 FO
gr

gs 4135 2797 78 79 rc
  18   18 4173 2836 FO
gr

gs 2678 2315 79 79 rc
  18   18 2717 2354 FO
gr

gs 4719 3088 79 79 rc
  18   18 4758 3127 FO
gr

gs 4362 3706 78 78 rc
  18   18 4400 3745 FO
gr

gs 3854 3819 79 79 rc
  18   18 3893 3858 FO
gr

gs 5330 2916 79 79 rc
  18   18 5369 2955 FO
gr

gs 4591 3060 79 79 rc
  18   18 4630 3099 FO
gr

gs 3786 3232 79 79 rc
  18   18 3825 3271 FO
gr

gs 3610 2427 79 79 rc
  18   18 3649 2466 FO
gr

gs 2520 1950 79 79 rc
  18   18 2559 1989 FO
gr

gs 5129 3177 79 79 rc
  18   18 5168 3216 FO
gr

gs 4167 3528 79 79 rc
  18   18 4206 3567 FO
gr

gs 3912 3138 79 79 rc
  18   18 3951 3177 FO
gr

gs 2415 2630 79 79 rc
  18   18 2454 2669 FO
gr

gs 4603 3151 79 79 rc
  18   18 4642 3190 FO
gr

gs 4925 2862 79 79 rc
  18   18 4964 2901 FO
gr

gs 3742 3417 79 79 rc
  18   18 3781 3456 FO
gr

gs 4571 2893 78 79 rc
  18   18 4610 2932 FO
gr

gs 4585 3250 79 79 rc
  18   18 4624 3289 FO
gr

gs 4320 2881 79 79 rc
  18   18 4359 2920 FO
gr

gs 3626 1415 79 79 rc
  18   18 3665 1454 FO
gr

gs 4123 3373 79 79 rc
  18   18 4162 3412 FO
gr

gs 3696 1585 79 79 rc
  18   18 3735 1624 FO
gr

gs 3022 2045 79 79 rc
  18   18 3061 2084 FO
gr

gs 5884 4526 79 79 rc
  18   18 5923 4565 FO
gr

gs 3378 2325 79 79 rc
  18   18 3417 2364 FO
gr

gs 4066 3211 79 79 rc
  18   18 4105 3250 FO
gr

gs 4422 2644 79 79 rc
  18   18 4461 2683 FO
gr

gs 2772 2060 78 79 rc
  18   18 2810 2099 FO
gr

gs 2775 2227 79 79 rc
  18   18 2814 2266 FO
gr

gs 2645 2379 79 79 rc
  18   18 2684 2418 FO
gr

gs 5078 3207 79 79 rc
  18   18 5117 3246 FO
gr

gs 5229 3178 79 78 rc
  18   18 5268 3216 FO
gr

gs 3383 1532 79 79 rc
  18   18 3422 1571 FO
gr

gs 3771 3133 79 79 rc
  18   18 3810 3172 FO
gr

gs 4227 3216 79 79 rc
  18   18 4266 3255 FO
gr

gs 4369 3176 78 79 rc
  18   18 4408 3215 FO
gr

gs 1895 2433 78 79 rc
  18   18 1933 2472 FO
gr

gs 4709 2953 79 79 rc
  18   18 4748 2992 FO
gr

gs 4489 3562 79 79 rc
  18   18 4528 3601 FO
gr

gs 4274 3781 79 78 rc
  18   18 4313 3819 FO
gr

gs 2353 1948 79 79 rc
  18   18 2392 1987 FO
gr

gs 4489 3694 79 79 rc
  18   18 4528 3733 FO
gr

gs 2915 2194 78 78 rc
  18   18 2953 2232 FO
gr

gs 4719 3320 79 79 rc
  18   18 4758 3359 FO
gr

gs 5835 3380 79 79 rc
  18   18 5874 3419 FO
gr

gs 3705 3524 79 79 rc
  18   18 3744 3563 FO
gr

gs 4943 3036 79 79 rc
  18   18 4982 3075 FO
gr

gs 4053 1572 79 79 rc
  18   18 4092 1611 FO
gr

gs 3290 1279 78 79 rc
  18   18 3328 1318 FO
gr

gs 3313 1840 79 79 rc
  18   18 3352 1879 FO
gr

gs 3293 3618 79 79 rc
  18   18 3332 3657 FO
gr

gs 2825 1809 79 79 rc
  18   18 2864 1848 FO
gr

gs 5097 2866 79 79 rc
  18   18 5136 2905 FO
gr

gs 3431 2031 79 79 rc
  18   18 3470 2070 FO
gr

gs 3511 2357 79 79 rc
  18   18 3550 2396 FO
gr

gs 4219 3386 79 78 rc
  18   18 4258 3424 FO
gr

gs 5410 2628 79 79 rc
  18   18 5449 2667 FO
gr

gr


end %%Color Dict

eplot
%%EndObject

396 18 moveto
/Helvetica-BoldOblique findfont
[10 0 0 10 0 0] makefont setfont
(Student Version of MATLAB) show

epage
end

showpage

%%Trailer
%%BoundingBox:    73   215   552   589
%%Pages: 001
%%EOF
