%!PS-Adobe-3.0 
%%Creator: MATLAB, The MathWorks, Inc. Version 7.14.0.739 (R2012a). Operating System: Darwin 14.4.0 Darwin Kernel Version 14.4.0: Thu May 28 11:35:04 PDT 2015; root:xnu-2782.30.5~1/RELEASE_X86_64 x86_64.
%%Title: ./last mistake:.ps
%%CreationDate: 09/25/2015  16:40:59
%%DocumentNeededFonts: Helvetica
%%DocumentProcessColors: Cyan Magenta Yellow Black
%%LanguageLevel: 2
%%Pages: (atend)
%%BoundingBox: (atend)
%%EndComments

%%BeginProlog
% MathWorks dictionary
/MathWorks 160 dict begin
% definition operators
/bdef {bind def} bind def
/ldef {load def} bind def
/xdef {exch def} bdef
/xstore {exch store} bdef
% operator abbreviations
/c  /clip ldef
/cc /concat ldef
/cp /closepath ldef
/gr /grestore ldef
/gs /gsave ldef
/mt /moveto ldef
/np /newpath ldef
/cm /currentmatrix ldef
/sm /setmatrix ldef
/rm /rmoveto ldef
/rl /rlineto ldef
/s {show newpath} bdef
/sc {setcmykcolor} bdef
/sr /setrgbcolor ldef
/sg /setgray ldef
/w /setlinewidth ldef
/j /setlinejoin ldef
/cap /setlinecap ldef
/rc {rectclip} bdef
/rf {rectfill} bdef
% page state control
/pgsv () def
/bpage {/pgsv save def} bdef
/epage {pgsv restore} bdef
/bplot /gsave ldef
/eplot {stroke grestore} bdef
% orientation switch
/portraitMode 0 def /landscapeMode 1 def /rotateMode 2 def
% coordinate system mappings
/dpi2point 0 def
% font control
/FontSize 0 def
/FMS {/FontSize xstore findfont [FontSize 0 0 FontSize neg 0 0]
  makefont setfont} bdef
/reencode {exch dup where {pop load} {pop StandardEncoding} ifelse
  exch dup 3 1 roll findfont dup length dict begin
  { 1 index /FID ne {def}{pop pop} ifelse } forall
  /Encoding exch def currentdict end definefont pop} bdef
/isroman {findfont /CharStrings get /Agrave known} bdef
/FMSR {3 1 roll 1 index dup isroman {reencode} {pop pop} ifelse
  exch FMS} bdef
/csm {1 dpi2point div -1 dpi2point div scale neg translate
 dup landscapeMode eq {pop -90 rotate}
  {rotateMode eq {90 rotate} if} ifelse} bdef
% line types: solid, dotted, dashed, dotdash
/SO { [] 0 setdash } bdef
/DO { [.5 dpi2point mul 4 dpi2point mul] 0 setdash } bdef
/DA { [6 dpi2point mul] 0 setdash } bdef
/DD { [.5 dpi2point mul 4 dpi2point mul 6 dpi2point mul 4
  dpi2point mul] 0 setdash } bdef
% macros for lines and objects
/L {lineto stroke} bdef
/MP {3 1 roll moveto 1 sub {rlineto} repeat} bdef
/AP {{rlineto} repeat} bdef
/PDlw -1 def
/W {/PDlw currentlinewidth def setlinewidth} def
/PP {closepath eofill} bdef
/DP {closepath stroke} bdef
/MR {4 -2 roll moveto dup  0 exch rlineto exch 0 rlineto
  neg 0 exch rlineto closepath} bdef
/FR {MR stroke} bdef
/PR {MR fill} bdef
/L1i {{currentfile picstr readhexstring pop} image} bdef
/tMatrix matrix def
/MakeOval {newpath tMatrix currentmatrix pop translate scale
0 0 1 0 360 arc tMatrix setmatrix} bdef
/FO {MakeOval stroke} bdef
/PO {MakeOval fill} bdef
/PD {currentlinewidth 2 div 0 360 arc fill
   PDlw -1 eq not {PDlw w /PDlw -1 def} if} def
/FA {newpath tMatrix currentmatrix pop translate scale
  0 0 1 5 -2 roll arc tMatrix setmatrix stroke} bdef
/PA {newpath tMatrix currentmatrix pop	translate 0 0 moveto scale
  0 0 1 5 -2 roll arc closepath tMatrix setmatrix fill} bdef
/FAn {newpath tMatrix currentmatrix pop translate scale
  0 0 1 5 -2 roll arcn tMatrix setmatrix stroke} bdef
/PAn {newpath tMatrix currentmatrix pop translate 0 0 moveto scale
  0 0 1 5 -2 roll arcn closepath tMatrix setmatrix fill} bdef
/vradius 0 def /hradius 0 def /lry 0 def
/lrx 0 def /uly 0 def /ulx 0 def /rad 0 def
/MRR {/vradius xdef /hradius xdef /lry xdef /lrx xdef /uly xdef
  /ulx xdef newpath tMatrix currentmatrix pop ulx hradius add uly
  vradius add translate hradius vradius scale 0 0 1 180 270 arc 
  tMatrix setmatrix lrx hradius sub uly vradius add translate
  hradius vradius scale 0 0 1 270 360 arc tMatrix setmatrix
  lrx hradius sub lry vradius sub translate hradius vradius scale
  0 0 1 0 90 arc tMatrix setmatrix ulx hradius add lry vradius sub
  translate hradius vradius scale 0 0 1 90 180 arc tMatrix setmatrix
  closepath} bdef
/FRR {MRR stroke } bdef
/PRR {MRR fill } bdef
/MlrRR {/lry xdef /lrx xdef /uly xdef /ulx xdef /rad lry uly sub 2 div def
  newpath tMatrix currentmatrix pop ulx rad add uly rad add translate
  rad rad scale 0 0 1 90 270 arc tMatrix setmatrix lrx rad sub lry rad
  sub translate rad rad scale 0 0 1 270 90 arc tMatrix setmatrix
  closepath} bdef
/FlrRR {MlrRR stroke } bdef
/PlrRR {MlrRR fill } bdef
/MtbRR {/lry xdef /lrx xdef /uly xdef /ulx xdef /rad lrx ulx sub 2 div def
  newpath tMatrix currentmatrix pop ulx rad add uly rad add translate
  rad rad scale 0 0 1 180 360 arc tMatrix setmatrix lrx rad sub lry rad
  sub translate rad rad scale 0 0 1 0 180 arc tMatrix setmatrix
  closepath} bdef
/FtbRR {MtbRR stroke } bdef
/PtbRR {MtbRR fill } bdef
/stri 6 array def /dtri 6 array def
/smat 6 array def /dmat 6 array def
/tmat1 6 array def /tmat2 6 array def /dif 3 array def
/asub {/ind2 exch def /ind1 exch def dup dup
  ind1 get exch ind2 get sub exch } bdef
/tri_to_matrix {
  2 0 asub 3 1 asub 4 0 asub 5 1 asub
  dup 0 get exch 1 get 7 -1 roll astore } bdef
/compute_transform {
  dmat dtri tri_to_matrix tmat1 invertmatrix 
  smat stri tri_to_matrix tmat2 concatmatrix } bdef
/ds {stri astore pop} bdef
/dt {dtri astore pop} bdef
/db {2 copy /cols xdef /rows xdef mul dup string
  currentfile 
  3 index 0 eq {/ASCIIHexDecode filter}
  {/ASCII85Decode filter 3 index 2 eq {/RunLengthDecode filter} if }
  ifelse exch readstring pop
  /bmap xdef pop pop} bdef
/it {gs np dtri aload pop moveto lineto lineto cp c
  cols rows 8 compute_transform 
  {bmap} image gr}bdef
/il {newpath moveto lineto stroke}bdef
currentdict end def
%%EndProlog

%%BeginSetup
MathWorks begin

0 cap

end
%%EndSetup

%%Page: 1 1
%%BeginPageSetup
%%PageBoundingBox:    73   215   552   589
MathWorks begin
bpage
%%EndPageSetup

%%BeginObject: obj1
bplot

/dpi2point 12 def
portraitMode 0216 7344 csm

  664   274  5745  4489 rc
85 dict begin %Colortable dictionary
/c0 { 0.000000 0.000000 0.000000 sr} bdef
/c1 { 1.000000 1.000000 1.000000 sr} bdef
/c2 { 0.900000 0.000000 0.000000 sr} bdef
/c3 { 0.000000 0.820000 0.000000 sr} bdef
/c4 { 0.000000 0.000000 0.800000 sr} bdef
/c5 { 0.910000 0.820000 0.320000 sr} bdef
/c6 { 1.000000 0.260000 0.820000 sr} bdef
/c7 { 0.000000 0.820000 0.820000 sr} bdef
c0
1 j
1 sg
   0    0 6918 5189 rf
6 w
0 4228 5361 0 0 -4228 899 4617 4 MP
PP
-5361 0 0 4228 5361 0 0 -4228 899 4617 5 MP stroke
4 w
DO
SO
6 w
0 sg
 899 4617 mt 6260 4617 L
 899 4617 mt  899  389 L
 899 4617 mt  899 4563 L
%%IncludeResource: font Helvetica
/Helvetica /ISOLatin1Encoding 120 FMSR

 833 4762 mt 
(20) s
1569 4617 mt 1569 4563 L
1503 4762 mt 
(40) s
2239 4617 mt 2239 4563 L
2173 4762 mt 
(60) s
2909 4617 mt 2909 4563 L
2843 4762 mt 
(80) s
3579 4617 mt 3579 4563 L
3479 4762 mt 
(100) s
4249 4617 mt 4249 4563 L
4149 4762 mt 
(120) s
4919 4617 mt 4919 4563 L
4819 4762 mt 
(140) s
5589 4617 mt 5589 4563 L
5489 4762 mt 
(160) s
6260 4617 mt 6260 4563 L
6160 4762 mt 
(180) s
 899 4617 mt  952 4617 L
 731 4661 mt 
(40) s
 899 4013 mt  952 4013 L
 731 4057 mt 
(60) s
 899 3409 mt  952 3409 L
 731 3453 mt 
(80) s
 899 2805 mt  952 2805 L
 664 2849 mt 
(100) s
 899 2201 mt  952 2201 L
 664 2245 mt 
(120) s
 899 1597 mt  952 1597 L
 664 1641 mt 
(140) s
 899  993 mt  952  993 L
 664 1037 mt 
(160) s
 899  389 mt  952  389 L
 664  433 mt 
(180) s
gs 899 389 5362 4229 rc
0 j
gs 3145 2375 79 79 rc
  18   18 3184 2414 FO
gr

gs 4527 3367 79 79 rc
  18   18 4566 3406 FO
gr

gs 4698 3130 79 79 rc
  18   18 4737 3169 FO
gr

gs 3322 1750 79 79 rc
  18   18 3361 1789 FO
gr

gs 3011 1159 79 79 rc
  18   18 3050 1198 FO
gr

gs 3899 3737 79 79 rc
  18   18 3938 3776 FO
gr

gs 4577 2569 78 79 rc
  18   18 4616 2608 FO
gr

gs 2839 2819 79 79 rc
  18   18 2878 2858 FO
gr

gs 5044 3810 79 79 rc
  18   18 5083 3849 FO
gr

gs 2748 2009 79 79 rc
  18   18 2787 2048 FO
gr

gs 4894 3391 79 78 rc
  18   18 4933 3429 FO
gr

gs 4295 3054 79 78 rc
  18   18 4334 3093 FO
gr

gs 3006 1934 79 79 rc
  18   18 3045 1973 FO
gr

gs 4315 2668 79 79 rc
  18   18 4354 2707 FO
gr

gs 3836 3232 79 79 rc
  18   18 3875 3271 FO
gr

gs 4558 2771 79 79 rc
  18   18 4597 2810 FO
gr

gs 3329 2321 79 79 rc
  18   18 3368 2360 FO
gr

gs 3394 1933 79 79 rc
  18   18 3433 1972 FO
gr

gs 3174 1958 79 79 rc
  18   18 3213 1997 FO
gr

gs 4781 3238 79 79 rc
  18   18 4820 3277 FO
gr

gs 4763 2445 79 79 rc
  18   18 4802 2484 FO
gr

gs 3661 3692 79 78 rc
  18   18 3700 3731 FO
gr

gs 3744 1693 79 79 rc
  18   18 3783 1732 FO
gr

gs 4353 2866 79 79 rc
  18   18 4392 2905 FO
gr

gs 2275 2635 79 79 rc
  18   18 2314 2674 FO
gr

gs 4401 3550 79 79 rc
  18   18 4440 3589 FO
gr

gs 3477 2425 79 79 rc
  18   18 3516 2464 FO
gr

gs 3777 3640 79 79 rc
  18   18 3816 3679 FO
gr

gs 3173 2021 79 79 rc
  18   18 3212 2060 FO
gr

gs 3436 2358 79 79 rc
  18   18 3475 2397 FO
gr

gs 2705 2038 79 79 rc
  18   18 2744 2077 FO
gr

gs 3858 3026 79 79 rc
  18   18 3897 3065 FO
gr

gs 4747 3240 79 79 rc
  18   18 4786 3279 FO
gr

gs 2909 2185 79 79 rc
  18   18 2948 2224 FO
gr

gs 3583 1841 79 78 rc
  18   18 3622 1879 FO
gr

gs 2800 1828 79 79 rc
  18   18 2839 1867 FO
gr

gs 4582 3616 79 79 rc
  18   18 4621 3655 FO
gr

gs 2561 2611 79 79 rc
  18   18 2600 2650 FO
gr

gs 2676 2144 79 79 rc
  18   18 2715 2183 FO
gr

gs 3034 2404 79 79 rc
  18   18 3073 2443 FO
gr

gs 3673 2182 79 79 rc
  18   18 3712 2221 FO
gr

gs 3355 2047 79 78 rc
  18   18 3394 2085 FO
gr

gs 3485 2434 79 79 rc
  18   18 3524 2473 FO
gr

gs 3985 3319 79 79 rc
  18   18 4024 3358 FO
gr

gs 2676 2086 79 79 rc
  18   18 2715 2125 FO
gr

gs 4044 3089 79 79 rc
  18   18 4083 3128 FO
gr

gs 4716 2697 78 78 rc
  18   18 4755 2735 FO
gr

gs 4445 3374 79 79 rc
  18   18 4484 3413 FO
gr

gs 4422 3789 79 79 rc
  18   18 4461 3828 FO
gr

gs 4565 2446 79 79 rc
  18   18 4604 2485 FO
gr

gs 3338 1636 78 79 rc
  18   18 3376 1675 FO
gr

gs 4375 2548 79 79 rc
  18   18 4414 2587 FO
gr

gs 3583 2358 79 79 rc
  18   18 3622 2397 FO
gr

gs 4296 2711 79 79 rc
  18   18 4335 2750 FO
gr

gs 3712 3356 79 79 rc
  18   18 3751 3395 FO
gr

gs 3525 2361 79 79 rc
  18   18 3564 2400 FO
gr

gs 3453 1867 78 79 rc
  18   18 3492 1906 FO
gr

gs 3081 2152 79 79 rc
  18   18 3120 2191 FO
gr

gs 3146 680 79 79 rc
  18   18 3185  719 FO
gr

gs 2947 1538 79 79 rc
  18   18 2986 1577 FO
gr

gs 3983 3200 79 79 rc
  18   18 4022 3239 FO
gr

gs 2769 2531 79 79 rc
  18   18 2808 2570 FO
gr

gs 4273 2927 79 79 rc
  18   18 4312 2966 FO
gr

gs 4099 2922 79 79 rc
  18   18 4138 2961 FO
gr

gs 4841 3091 79 79 rc
  18   18 4880 3130 FO
gr

gs 3378 2214 79 79 rc
  18   18 3417 2253 FO
gr

gs 3398 2245 79 79 rc
  18   18 3437 2284 FO
gr

gs 3037 1511 79 78 rc
  18   18 3076 1549 FO
gr

gs 3969 2607 79 78 rc
  18   18 4008 2645 FO
gr

gs 4026 2908 79 79 rc
  18   18 4065 2947 FO
gr

gs 4803 3200 79 79 rc
  18   18 4842 3239 FO
gr

gs 2899 2288 79 79 rc
  18   18 2938 2327 FO
gr

gs 2382 2114 79 78 rc
  18   18 2421 2152 FO
gr

gs 3192 2128 79 79 rc
  18   18 3231 2167 FO
gr

gs 3679 1665 79 79 rc
  18   18 3718 1704 FO
gr

gs 4416 3570 79 78 rc
  18   18 4455 3609 FO
gr

gs 4346 3358 79 78 rc
  18   18 4385 3397 FO
gr

gs 3683 3732 79 79 rc
  18   18 3722 3771 FO
gr

gs 3076 2507 79 79 rc
  18   18 3115 2546 FO
gr

gs 3586 2153 79 79 rc
  18   18 3625 2192 FO
gr

gs 3926 2866 79 79 rc
  18   18 3965 2905 FO
gr

gs 4420 3342 79 79 rc
  18   18 4459 3381 FO
gr

gs 3525 2070 79 79 rc
  18   18 3564 2109 FO
gr

gs 3086 2334 79 79 rc
  18   18 3125 2373 FO
gr

gs 4873 2971 79 79 rc
  18   18 4912 3010 FO
gr

gs 3311 2032 79 79 rc
  18   18 3350 2071 FO
gr

gs 4657 2300 79 79 rc
  18   18 4696 2339 FO
gr

gs 5321 3010 79 79 rc
  18   18 5360 3049 FO
gr

gs 4519 3297 79 79 rc
  18   18 4558 3336 FO
gr

gs 3278 1409 79 79 rc
  18   18 3317 1448 FO
gr

gs 4156 3164 79 79 rc
  18   18 4195 3203 FO
gr

gs 3201 1525 79 79 rc
  18   18 3240 1564 FO
gr

gs 4358 2857 79 79 rc
  18   18 4397 2896 FO
gr

gs 4950 2689 79 79 rc
  18   18 4989 2728 FO
gr

gs 4393 2770 79 79 rc
  18   18 4432 2809 FO
gr

gs 3167 2091 79 78 rc
  18   18 3206 2129 FO
gr

gs 3118 2220 79 79 rc
  18   18 3157 2259 FO
gr

gs 4561 2746 78 79 rc
  18   18 4599 2785 FO
gr

gs 4958 4514 79 79 rc
  18   18 4997 4553 FO
gr

gs 4111 2690 79 79 rc
  18   18 4150 2729 FO
gr

gs 3058 2081 79 79 rc
  18   18 3097 2120 FO
gr

gs 4076 2947 79 78 rc
  18   18 4115 2985 FO
gr

gs 2695 1889 79 79 rc
  18   18 2734 1928 FO
gr

gs 4334 3066 79 79 rc
  18   18 4373 3105 FO
gr

gs 4422 3200 79 79 rc
  18   18 4461 3239 FO
gr

gs 3338 1675 79 78 rc
  18   18 3377 1714 FO
gr

gs 3766 3115 79 79 rc
  18   18 3805 3154 FO
gr

gs 2747 2863 79 79 rc
  18   18 2786 2902 FO
gr

gs 3351 1985 78 79 rc
  18   18 3389 2024 FO
gr

gs 4226 3346 79 78 rc
  18   18 4265 3385 FO
gr

gs 2370 1385 79 79 rc
  18   18 2409 1424 FO
gr

gs 3544 2217 79 79 rc
  18   18 3583 2256 FO
gr

gs 3784 2958 79 79 rc
  18   18 3823 2997 FO
gr

gs 2379 1945 79 78 rc
  18   18 2418 1984 FO
gr

gs 5201 3351 79 79 rc
  18   18 5240 3390 FO
gr

gs 2354 2868 79 79 rc
  18   18 2393 2907 FO
gr

gs 3461 1396 79 79 rc
  18   18 3500 1435 FO
gr

gs 2557 1529 79 79 rc
  18   18 2596 1568 FO
gr

gs 3762 1965 79 79 rc
  18   18 3801 2004 FO
gr

gs 2843 1856 79 79 rc
  18   18 2882 1895 FO
gr

gs 3368 1866 79 79 rc
  18   18 3407 1905 FO
gr

gs 4483 3387 79 79 rc
  18   18 4522 3426 FO
gr

gs 3642 2276 79 79 rc
  18   18 3681 2315 FO
gr

gs 4531 2998 79 79 rc
  18   18 4570 3037 FO
gr

gs 3523 1806 79 79 rc
  18   18 3562 1845 FO
gr

gs 4027 3042 79 79 rc
  18   18 4066 3081 FO
gr

gs 4465 3608 79 79 rc
  18   18 4504 3647 FO
gr

gs 2192 2650 78 79 rc
  18   18 2230 2689 FO
gr

gs 3791 2848 78 79 rc
  18   18 3829 2887 FO
gr

gs 3199 2675 79 79 rc
  18   18 3238 2714 FO
gr

gs 4132 2848 79 79 rc
  18   18 4171 2887 FO
gr

gs 4373 3453 79 79 rc
  18   18 4412 3492 FO
gr

gs 4274 3596 79 79 rc
  18   18 4313 3635 FO
gr

gs 3986 3460 78 79 rc
  18   18 4025 3499 FO
gr

gs 3178 2088 79 79 rc
  18   18 3217 2127 FO
gr

gs 2796 2208 79 79 rc
  18   18 2835 2247 FO
gr

gs 4092 3063 79 78 rc
  18   18 4131 3101 FO
gr

gs 4372 3284 79 79 rc
  18   18 4411 3323 FO
gr

gs 5000 4499 79 79 rc
  18   18 5039 4538 FO
gr

gs 4351 3502 79 79 rc
  18   18 4390 3541 FO
gr

gs 3951 3144 79 79 rc
  18   18 3990 3183 FO
gr

gs 2658 2455 79 79 rc
  18   18 2697 2494 FO
gr

gs 4695 3378 79 79 rc
  18   18 4734 3417 FO
gr

gs 3929 3116 78 79 rc
  18   18 3968 3155 FO
gr

gs 4332 3316 79 79 rc
  18   18 4371 3355 FO
gr

gs 4607 3315 79 79 rc
  18   18 4646 3354 FO
gr

gs 3895 3693 79 79 rc
  18   18 3934 3732 FO
gr

gs 5009 3666 79 78 rc
  18   18 5048 3704 FO
gr

gs 3535 1782 79 79 rc
  18   18 3574 1821 FO
gr

gs 3986 3337 79 79 rc
  18   18 4025 3376 FO
gr

gs 2803 2450 79 79 rc
  18   18 2842 2489 FO
gr

gs 3641 3079 79 79 rc
  18   18 3680 3118 FO
gr

gs 2582 2712 79 79 rc
  18   18 2621 2751 FO
gr

gs 3283 2650 79 79 rc
  18   18 3322 2689 FO
gr

gs 2069 1988 79 79 rc
  18   18 2108 2027 FO
gr

gs 2354 1633 79 78 rc
  18   18 2393 1672 FO
gr

gs 3025 2462 79 79 rc
  18   18 3064 2501 FO
gr

gs 3990 1966 79 78 rc
  18   18 4029 2004 FO
gr

gs 4532 3050 79 79 rc
  18   18 4571 3089 FO
gr

gs 4026 2682 79 79 rc
  18   18 4065 2721 FO
gr

gs 3131 2192 79 79 rc
  18   18 3170 2231 FO
gr

gs 3958 2734 78 79 rc
  18   18 3997 2773 FO
gr

gs 2956 1554 79 79 rc
  18   18 2995 1593 FO
gr

gs 3608 1912 79 79 rc
  18   18 3647 1951 FO
gr

gs 3100 2509 79 79 rc
  18   18 3139 2548 FO
gr

gs 2809 2597 79 79 rc
  18   18 2848 2636 FO
gr

gs 4600 3063 79 79 rc
  18   18 4639 3102 FO
gr

gs 3575 3949 78 79 rc
  18   18 3613 3988 FO
gr

gs 3194 1919 79 79 rc
  18   18 3233 1958 FO
gr

gs 3312 2405 79 79 rc
  18   18 3351 2444 FO
gr

gs 3315 1853 79 79 rc
  18   18 3354 1892 FO
gr

gs 3983 2967 79 78 rc
  18   18 4022 3006 FO
gr

gs 3221 2041 79 78 rc
  18   18 3260 2079 FO
gr

gs 2721 2313 79 79 rc
  18   18 2760 2352 FO
gr

gs 4723 3218 79 79 rc
  18   18 4762 3257 FO
gr

gs 4286 3449 79 79 rc
  18   18 4325 3488 FO
gr

gs 4537 2868 79 79 rc
  18   18 4576 2907 FO
gr

gs 3734 3216 79 79 rc
  18   18 3773 3255 FO
gr

gs 3286 2035 79 79 rc
  18   18 3325 2074 FO
gr

gs 4873 3310 79 79 rc
  18   18 4912 3349 FO
gr

gs 5005 2638 79 79 rc
  18   18 5044 2677 FO
gr

gs 4666 2247 79 78 rc
  18   18 4705 2285 FO
gr

gs 3683 3325 79 79 rc
  18   18 3722 3364 FO
gr

gs 3655 1324 79 79 rc
  18   18 3694 1363 FO
gr

gs 4670 3327 79 78 rc
  18   18 4709 3366 FO
gr

gs 4738 3566 79 79 rc
  18   18 4777 3605 FO
gr

gs 2802 2514 79 79 rc
  18   18 2841 2553 FO
gr

gs 4514 2999 79 79 rc
  18   18 4553 3038 FO
gr

gs 2871 1655 79 79 rc
  18   18 2910 1694 FO
gr

gs 4092 3601 79 79 rc
  18   18 4131 3640 FO
gr

gs 4006 1863 78 79 rc
  18   18 4044 1902 FO
gr

gs 3718 3801 79 79 rc
  18   18 3757 3840 FO
gr

gs 5002 3055 79 79 rc
  18   18 5041 3094 FO
gr

gs 4582 2472 79 79 rc
  18   18 4621 2511 FO
gr

gs 3624 2117 79 78 rc
  18   18 3663 2156 FO
gr

gs 3357 2669 79 79 rc
  18   18 3396 2708 FO
gr

gs 2139 950 79 79 rc
  18   18 2178  989 FO
gr

gs 3338 2104 79 79 rc
  18   18 3377 2143 FO
gr

gs 3143 1251 79 79 rc
  18   18 3182 1290 FO
gr

gs 3897 3258 79 79 rc
  18   18 3936 3297 FO
gr

gs 4228 2747 79 79 rc
  18   18 4267 2786 FO
gr

gs 3256 2082 79 79 rc
  18   18 3295 2121 FO
gr

gs 3986 2797 79 79 rc
  18   18 4025 2836 FO
gr

gs 2893 2315 79 79 rc
  18   18 2932 2354 FO
gr

gs 4425 3088 78 79 rc
  18   18 4464 3127 FO
gr

gs 4156 3706 79 78 rc
  18   18 4195 3745 FO
gr

gs 3776 3819 79 79 rc
  18   18 3815 3858 FO
gr

gs 4882 2916 79 79 rc
  18   18 4921 2955 FO
gr

gs 4328 3060 79 79 rc
  18   18 4367 3099 FO
gr

gs 3724 3232 79 79 rc
  18   18 3763 3271 FO
gr

gs 3593 2427 79 79 rc
  18   18 3632 2466 FO
gr

gs 2775 1950 79 79 rc
  18   18 2814 1989 FO
gr

gs 4732 3177 79 79 rc
  18   18 4771 3216 FO
gr

gs 4010 3528 79 79 rc
  18   18 4049 3567 FO
gr

gs 3819 3138 79 79 rc
  18   18 3858 3177 FO
gr

gs 2696 2630 79 79 rc
  18   18 2735 2669 FO
gr

gs 4338 3151 78 79 rc
  18   18 4376 3190 FO
gr

gs 4579 2862 79 79 rc
  18   18 4618 2901 FO
gr

gs 3692 3417 79 79 rc
  18   18 3731 3456 FO
gr

gs 4313 2893 79 79 rc
  18   18 4352 2932 FO
gr

gs 4324 3250 79 79 rc
  18   18 4363 3289 FO
gr

gs 4125 2881 79 79 rc
  18   18 4164 2920 FO
gr

gs 3604 1415 79 79 rc
  18   18 3643 1454 FO
gr

gs 3977 3373 79 79 rc
  18   18 4016 3412 FO
gr

gs 3657 1585 79 79 rc
  18   18 3696 1624 FO
gr

gs 3151 2045 79 79 rc
  18   18 3190 2084 FO
gr

gs 5298 4526 79 79 rc
  18   18 5337 4565 FO
gr

gs 3419 2325 78 79 rc
  18   18 3458 2364 FO
gr

gs 3935 3211 78 79 rc
  18   18 3973 3250 FO
gr

gs 4202 2644 79 79 rc
  18   18 4241 2683 FO
gr

gs 2964 2060 79 79 rc
  18   18 3003 2099 FO
gr

gs 2967 2227 78 79 rc
  18   18 3005 2266 FO
gr

gs 2869 2379 79 79 rc
  18   18 2908 2418 FO
gr

gs 4693 3207 79 79 rc
  18   18 4732 3246 FO
gr

gs 4807 3178 79 78 rc
  18   18 4846 3216 FO
gr

gs 3422 1532 79 79 rc
  18   18 3461 1571 FO
gr

gs 3713 3133 79 79 rc
  18   18 3752 3172 FO
gr

gs 4055 3216 79 79 rc
  18   18 4094 3255 FO
gr

gs 4161 3176 79 79 rc
  18   18 4200 3215 FO
gr

gs 2306 2433 79 79 rc
  18   18 2345 2472 FO
gr

gs 4417 2953 78 79 rc
  18   18 4456 2992 FO
gr

gs 4252 3562 79 79 rc
  18   18 4291 3601 FO
gr

gs 4090 3781 79 78 rc
  18   18 4129 3819 FO
gr

gs 2650 1948 79 79 rc
  18   18 2689 1987 FO
gr

gs 4251 3694 79 79 rc
  18   18 4290 3733 FO
gr

gs 3071 2194 79 78 rc
  18   18 3110 2232 FO
gr

gs 4424 3320 79 79 rc
  18   18 4463 3359 FO
gr

gs 5261 3380 79 79 rc
  18   18 5300 3419 FO
gr

gs 3664 3524 79 79 rc
  18   18 3703 3563 FO
gr

gs 4592 3036 79 79 rc
  18   18 4631 3075 FO
gr

gs 3924 1572 79 79 rc
  18   18 3963 1611 FO
gr

gs 3352 1279 79 79 rc
  18   18 3391 1318 FO
gr

gs 3370 1840 78 79 rc
  18   18 3409 1879 FO
gr

gs 3355 3618 79 79 rc
  18   18 3394 3657 FO
gr

gs 3003 1809 79 79 rc
  18   18 3042 1848 FO
gr

gs 4708 2866 78 79 rc
  18   18 4747 2905 FO
gr

gs 3458 2031 79 79 rc
  18   18 3497 2070 FO
gr

gs 3519 2357 79 79 rc
  18   18 3558 2396 FO
gr

gs 4049 3386 79 78 rc
  18   18 4088 3424 FO
gr

gs 4942 2628 79 79 rc
  18   18 4981 2667 FO
gr

gs 4336 2500 79 79 rc
  18   18 4375 2539 FO
gr

gs 4296 2687 79 79 rc
  18   18 4335 2726 FO
gr

gs 2797 2709 79 79 rc
  18   18 2836 2748 FO
gr

gs 5246 3756 78 79 rc
  18   18 5285 3795 FO
gr

gs 3271 755 79 79 rc
  18   18 3310  794 FO
gr

gs 3613 2994 79 78 rc
  18   18 3652 3033 FO
gr

gs 4075 2938 79 79 rc
  18   18 4114 2977 FO
gr

gs 3454 1830 79 79 rc
  18   18 3493 1869 FO
gr

gs 3586 3748 79 79 rc
  18   18 3625 3787 FO
gr

gs 2219 1615 78 78 rc
  18   18 2258 1654 FO
gr

gs 4201 2589 79 79 rc
  18   18 4240 2628 FO
gr

gs 3079 2543 79 79 rc
  18   18 3118 2582 FO
gr

gs 3145 1753 79 78 rc
  18   18 3184 1792 FO
gr

gs 4293 3157 79 79 rc
  18   18 4332 3196 FO
gr

gs 3342 2669 79 79 rc
  18   18 3381 2708 FO
gr

gs 4756 2530 79 79 rc
  18   18 4795 2569 FO
gr

gs 3862 1809 78 79 rc
  18   18 3901 1848 FO
gr

gs 4395 3514 79 79 rc
  18   18 4434 3553 FO
gr

gs 2989 2213 79 79 rc
  18   18 3028 2252 FO
gr

gs 3247 2009 79 79 rc
  18   18 3286 2048 FO
gr

gs 4908 2713 79 79 rc
  18   18 4947 2752 FO
gr

gs 5375 2684 79 78 rc
  18   18 5414 2722 FO
gr

gs 2871 2127 79 79 rc
  18   18 2910 2166 FO
gr

gs 3688 1998 79 78 rc
  18   18 3727 2037 FO
gr

gs 4690 2967 79 79 rc
  18   18 4729 3006 FO
gr

gs 3475 2495 79 79 rc
  18   18 3514 2534 FO
gr

gs 4945 2862 79 79 rc
  18   18 4984 2901 FO
gr

gs 2172 2269 79 79 rc
  18   18 2211 2308 FO
gr

gs 3607 3155 79 79 rc
  18   18 3646 3194 FO
gr

gs 4267 3394 79 79 rc
  18   18 4306 3433 FO
gr

gs 2773 1899 79 79 rc
  18   18 2812 1938 FO
gr

gs 3351 3624 79 79 rc
  18   18 3390 3663 FO
gr

gs 3357 1949 79 79 rc
  18   18 3396 1988 FO
gr

gs 4664 3149 79 79 rc
  18   18 4703 3188 FO
gr

gs 3889 3056 79 79 rc
  18   18 3928 3095 FO
gr

gs 3766 2075 79 79 rc
  18   18 3805 2114 FO
gr

gs 3015 1740 79 79 rc
  18   18 3054 1779 FO
gr

gs 3532 1774 79 79 rc
  18   18 3571 1813 FO
gr

gs 4273 2731 79 79 rc
  18   18 4312 2770 FO
gr

gs 4953 2981 79 79 rc
  18   18 4992 3020 FO
gr

gs 3204 2505 79 79 rc
  18   18 3243 2544 FO
gr

gs 4552 3226 78 78 rc
  18   18 4591 3264 FO
gr

gs 3868 2881 79 79 rc
  18   18 3907 2920 FO
gr

gs 4204 3551 79 78 rc
  18   18 4243 3590 FO
gr

gs 2250 2227 79 79 rc
  18   18 2289 2266 FO
gr

gs 3632 1539 78 79 rc
  18   18 3671 1578 FO
gr

gs 2885 2118 79 79 rc
  18   18 2924 2157 FO
gr

gs 4041 3679 79 79 rc
  18   18 4080 3718 FO
gr

gs 3467 3361 79 79 rc
  18   18 3506 3400 FO
gr

gs 2537 2250 79 79 rc
  18   18 2576 2289 FO
gr

gs 4223 2903 79 79 rc
  18   18 4262 2942 FO
gr

gs 3311 2310 79 79 rc
  18   18 3350 2349 FO
gr

gs 3403 3204 79 79 rc
  18   18 3442 3243 FO
gr

gs 4363 2449 79 78 rc
  18   18 4402 2488 FO
gr

gs 3059 1852 79 78 rc
  18   18 3098 1890 FO
gr

gs 2639 1385 79 79 rc
  18   18 2678 1424 FO
gr

gs 3619 2994 79 79 rc
  18   18 3658 3033 FO
gr

gs 3402 2331 79 79 rc
  18   18 3441 2370 FO
gr

gs 3705 3010 79 79 rc
  18   18 3744 3049 FO
gr

gs 3610 2264 79 79 rc
  18   18 3649 2303 FO
gr

gs 4606 3447 78 79 rc
  18   18 4644 3486 FO
gr

gs 4076 3444 79 78 rc
  18   18 4115 3483 FO
gr

gs 3134 2260 78 78 rc
  18   18 3172 2299 FO
gr

gs 3872 1623 79 79 rc
  18   18 3911 1662 FO
gr

gs 3897 3494 79 79 rc
  18   18 3936 3533 FO
gr

gs 3389 2019 79 79 rc
  18   18 3428 2058 FO
gr

gs 2626 2419 79 78 rc
  18   18 2665 2458 FO
gr

gs 4105 3325 79 79 rc
  18   18 4144 3364 FO
gr

gs 3116 2181 78 79 rc
  18   18 3154 2220 FO
gr

gs 4369 3284 78 79 rc
  18   18 4408 3323 FO
gr

gs 2054 2328 79 79 rc
  18   18 2093 2367 FO
gr

gs 3445 1861 79 79 rc
  18   18 3484 1900 FO
gr

gs 4660 3740 79 79 rc
  18   18 4699 3779 FO
gr

gs 3471 2178 79 79 rc
  18   18 3510 2217 FO
gr

gs 4109 3142 79 79 rc
  18   18 4148 3181 FO
gr

gs 4677 2406 79 79 rc
  18   18 4716 2445 FO
gr

gs 2174 2509 79 79 rc
  18   18 2213 2548 FO
gr

gs 3458 3679 79 79 rc
  18   18 3497 3718 FO
gr

gs 3308 2187 79 79 rc
  18   18 3347 2226 FO
gr

gs 4493 2642 79 79 rc
  18   18 4532 2681 FO
gr

gs 3968 3309 78 79 rc
  18   18 4006 3348 FO
gr

gs 3936 1906 78 79 rc
  18   18 3975 1945 FO
gr

gs 3145 1849 79 79 rc
  18   18 3184 1888 FO
gr

gs 4839 2915 79 79 rc
  18   18 4878 2954 FO
gr

gs 3556 2299 79 79 rc
  18   18 3595 2338 FO
gr

gs 4410 2740 79 79 rc
  18   18 4449 2779 FO
gr

gs 3803 3727 79 79 rc
  18   18 3842 3766 FO
gr

gs 4924 2486 79 79 rc
  18   18 4963 2525 FO
gr

gs 4215 2664 78 79 rc
  18   18 4254 2703 FO
gr

gs 3289 2341 79 79 rc
  18   18 3328 2380 FO
gr

gs 3488 2115 79 79 rc
  18   18 3527 2154 FO
gr

gs 4384 3318 79 79 rc
  18   18 4423 3357 FO
gr

gs 3595 2053 79 79 rc
  18   18 3634 2092 FO
gr

gs 3029 1690 79 79 rc
  18   18 3068 1729 FO
gr

gs 2786 1579 79 79 rc
  18   18 2825 1618 FO
gr

gs 3668 3428 79 79 rc
  18   18 3707 3467 FO
gr

gs 3040 1632 79 78 rc
  18   18 3079 1671 FO
gr

gs 4689 2432 78 79 rc
  18   18 4728 2471 FO
gr

gs 3344 1930 79 79 rc
  18   18 3383 1969 FO
gr

gs 3716 1916 79 79 rc
  18   18 3755 1955 FO
gr

gs 3197 2334 79 78 rc
  18   18 3236 2373 FO
gr

gs 2292 1955 79 79 rc
  18   18 2331 1994 FO
gr

gs 4036 2905 78 79 rc
  18   18 4075 2944 FO
gr

gs 3290 2609 79 79 rc
  18   18 3329 2648 FO
gr

gs 3433 2368 79 78 rc
  18   18 3472 2406 FO
gr

gs 4117 3647 79 79 rc
  18   18 4156 3686 FO
gr

gs 2907 2585 79 78 rc
  18   18 2946 2624 FO
gr

gs 4171 3234 79 78 rc
  18   18 4210 3272 FO
gr

gs 4182 3019 79 79 rc
  18   18 4221 3058 FO
gr

gs 3236 2106 79 79 rc
  18   18 3275 2145 FO
gr

gs 2888 1095 78 79 rc
  18   18 2926 1134 FO
gr

gs 2169 3300 79 79 rc
  18   18 2208 3339 FO
gr

gs 3793 2087 79 79 rc
  18   18 3832 2126 FO
gr

gs 3968 2927 79 79 rc
  18   18 4007 2966 FO
gr

gs 4749 3264 79 79 rc
  18   18 4788 3303 FO
gr

gs 4233 2827 79 79 rc
  18   18 4272 2866 FO
gr

gs 3485 2505 79 79 rc
  18   18 3524 2544 FO
gr

gs 4086 3554 79 79 rc
  18   18 4125 3593 FO
gr

gs 4459 2772 78 79 rc
  18   18 4498 2811 FO
gr

gs 4539 3487 79 79 rc
  18   18 4578 3526 FO
gr

gs 4577 2827 79 79 rc
  18   18 4616 2866 FO
gr

gs 3713 2013 79 79 rc
  18   18 3752 2052 FO
gr

gs 4893 2753 79 79 rc
  18   18 4932 2792 FO
gr

gs 3021 1739 79 79 rc
  18   18 3060 1778 FO
gr

gs 3915 2710 78 79 rc
  18   18 3953 2749 FO
gr

gs 2485 1679 78 79 rc
  18   18 2523 1718 FO
gr

gs 4456 3217 79 79 rc
  18   18 4495 3256 FO
gr

gs 3223 1553 79 79 rc
  18   18 3262 1592 FO
gr

gs 3709 2886 79 78 rc
  18   18 3748 2925 FO
gr

gs 5372 2991 79 79 rc
  18   18 5411 3030 FO
gr

gs 2656 2323 79 79 rc
  18   18 2695 2362 FO
gr

gs 5919 3158 79 78 rc
  18   18 5958 3196 FO
gr

gs 4204 3264 79 79 rc
  18   18 4243 3303 FO
gr

gs 4847 2587 79 79 rc
  18   18 4886 2626 FO
gr

gs 3669 2260 79 79 rc
  18   18 3708 2299 FO
gr

gs 4121 2687 79 79 rc
  18   18 4160 2726 FO
gr

gs 3611 1882 79 79 rc
  18   18 3650 1921 FO
gr

gs 4237 3250 79 79 rc
  18   18 4276 3289 FO
gr

gs 2292 2399 79 78 rc
  18   18 2331 2437 FO
gr

gs 2658 3222 79 78 rc
  18   18 2697 3260 FO
gr

gs 3769 2262 79 79 rc
  18   18 3808 2301 FO
gr

gs 3342 2366 79 79 rc
  18   18 3381 2405 FO
gr

gs 3626 1828 79 79 rc
  18   18 3665 1867 FO
gr

gs 2653 2164 79 78 rc
  18   18 2692 2202 FO
gr

gs 3958 1919 79 79 rc
  18   18 3997 1958 FO
gr

gs 3925 3068 79 79 rc
  18   18 3964 3107 FO
gr

gs 4001 1337 79 79 rc
  18   18 4040 1376 FO
gr

gs 4241 3040 79 79 rc
  18   18 4280 3079 FO
gr

gs 4653 2800 79 79 rc
  18   18 4692 2839 FO
gr

gs 2834 1618 79 79 rc
  18   18 2873 1657 FO
gr

gs 3744 3138 79 79 rc
  18   18 3783 3177 FO
gr

gs 4254 2652 79 79 rc
  18   18 4293 2691 FO
gr

gs 4003 2737 79 79 rc
  18   18 4042 2776 FO
gr

gs 4187 3023 78 78 rc
  18   18 4225 3062 FO
gr

gs 3969 2725 79 79 rc
  18   18 4008 2764 FO
gr

gs 4356 4007 79 79 rc
  18   18 4395 4046 FO
gr

gs 3305 2010 79 79 rc
  18   18 3344 2049 FO
gr

gs 3195 1489 78 79 rc
  18   18 3234 1528 FO
gr

gs 3138 2488 79 79 rc
  18   18 3177 2527 FO
gr

gs 3453 1727 78 79 rc
  18   18 3492 1766 FO
gr

gs 3811 2871 79 79 rc
  18   18 3850 2910 FO
gr

gs 3468 1351 79 79 rc
  18   18 3507 1390 FO
gr

gs 3870 2884 79 79 rc
  18   18 3909 2923 FO
gr

gs 3211 3488 79 79 rc
  18   18 3250 3527 FO
gr

gs 4501 2555 79 79 rc
  18   18 4540 2594 FO
gr

gs 3677 2098 79 79 rc
  18   18 3716 2137 FO
gr

gs 3720 4358 79 79 rc
  18   18 3759 4397 FO
gr

gs 3770 2224 79 79 rc
  18   18 3809 2263 FO
gr

gs 3887 3124 78 79 rc
  18   18 3925 3163 FO
gr

gs 4924 2464 79 79 rc
  18   18 4963 2503 FO
gr

gs 3466 2447 79 79 rc
  18   18 3505 2486 FO
gr

gs 3366 1715 79 79 rc
  18   18 3405 1754 FO
gr

gs 2685 2166 79 79 rc
  18   18 2724 2205 FO
gr

gs 4235 2963 79 79 rc
  18   18 4274 3002 FO
gr

gs 3176 1646 79 79 rc
  18   18 3215 1685 FO
gr

gs 4889 3195 79 79 rc
  18   18 4928 3234 FO
gr

gs 4724 3282 79 78 rc
  18   18 4763 3320 FO
gr

gs 3352 990 79 79 rc
  18   18 3391 1029 FO
gr

gs 4097 2834 79 79 rc
  18   18 4136 2873 FO
gr

gs 4054 2745 79 79 rc
  18   18 4093 2784 FO
gr

gs 5263 3072 79 79 rc
  18   18 5302 3111 FO
gr

gs 4970 3401 79 79 rc
  18   18 5009 3440 FO
gr

gs 3101 2329 78 79 rc
  18   18 3139 2368 FO
gr

gs 2743 1204 79 79 rc
  18   18 2782 1243 FO
gr

gs 3449 1409 79 79 rc
  18   18 3488 1448 FO
gr

gs 4210 2925 79 79 rc
  18   18 4249 2964 FO
gr

gs 2397 2984 79 79 rc
  18   18 2436 3023 FO
gr

gs 3496 2410 78 79 rc
  18   18 3534 2449 FO
gr

gs 2855 1869 79 79 rc
  18   18 2894 1908 FO
gr

gs 1762 1973 79 79 rc
  18   18 1801 2012 FO
gr

gs 2450 2237 79 78 rc
  18   18 2489 2276 FO
gr

gs 3097 2203 79 79 rc
  18   18 3136 2242 FO
gr

gs 3042 2653 79 79 rc
  18   18 3081 2692 FO
gr

gs 4475 2982 79 78 rc
  18   18 4514 3021 FO
gr

gs 3022 2573 79 79 rc
  18   18 3061 2612 FO
gr

gs 3249 2569 79 79 rc
  18   18 3288 2608 FO
gr

gs 4378 3569 79 79 rc
  18   18 4417 3608 FO
gr

gs 4666 2750 79 79 rc
  18   18 4705 2789 FO
gr

gs 3316 1657 79 79 rc
  18   18 3355 1696 FO
gr

gs 3597 3164 79 79 rc
  18   18 3636 3203 FO
gr

gs 4264 2929 79 79 rc
  18   18 4303 2968 FO
gr

gs 4178 3041 79 79 rc
  18   18 4217 3080 FO
gr

gs 3010 2419 79 79 rc
  18   18 3049 2458 FO
gr

gs 3188 2475 79 79 rc
  18   18 3227 2514 FO
gr

gs 2760 2224 79 79 rc
  18   18 2799 2263 FO
gr

gs 3437 1945 79 78 rc
  18   18 3476 1983 FO
gr

gs 2934 1857 79 78 rc
  18   18 2973 1896 FO
gr

gs 3204 2400 79 79 rc
  18   18 3243 2439 FO
gr

gs 2702 3110 79 79 rc
  18   18 2741 3149 FO
gr

gs 3175 1874 79 79 rc
  18   18 3214 1913 FO
gr

gs 2974 1724 79 79 rc
  18   18 3013 1763 FO
gr

gs 2874 2649 79 79 rc
  18   18 2913 2688 FO
gr

gs 3630 3680 79 79 rc
  18   18 3669 3719 FO
gr

gs 3083 1510 78 79 rc
  18   18 3121 1549 FO
gr

gs 3231 2634 79 79 rc
  18   18 3270 2673 FO
gr

gs 3336 1741 79 78 rc
  18   18 3375 1779 FO
gr

gs 2359 1410 79 79 rc
  18   18 2398 1449 FO
gr

gs 4800 3780 79 79 rc
  18   18 4839 3819 FO
gr

gs 2959 1994 79 79 rc
  18   18 2998 2033 FO
gr

gs 3790 3692 79 79 rc
  18   18 3829 3731 FO
gr

gs 3675 1811 79 79 rc
  18   18 3714 1850 FO
gr

gs 4587 2316 79 79 rc
  18   18 4626 2355 FO
gr

gs 4649 2671 79 79 rc
  18   18 4688 2710 FO
gr

gs 2908 2029 79 79 rc
  18   18 2947 2068 FO
gr

gs 3836 3237 79 79 rc
  18   18 3875 3276 FO
gr

gs 4165 1443 79 78 rc
  18   18 4204 1482 FO
gr

gs 4759 3295 78 79 rc
  18   18 4798 3334 FO
gr

gs 2677 1856 79 79 rc
  18   18 2716 1895 FO
gr

gs 2945 2599 79 79 rc
  18   18 2984 2638 FO
gr

gs 4102 2655 79 79 rc
  18   18 4141 2694 FO
gr

gs 3571 1747 79 79 rc
  18   18 3610 1786 FO
gr

gs 3312 1702 78 79 rc
  18   18 3351 1741 FO
gr

gs 2726 1946 79 79 rc
  18   18 2765 1985 FO
gr

gs 3816 1469 79 79 rc
  18   18 3855 1508 FO
gr

gs 1591 2754 79 79 rc
  18   18 1630 2793 FO
gr

gs 2675 1616 79 79 rc
  18   18 2714 1655 FO
gr

gs 4049 2559 79 79 rc
  18   18 4088 2598 FO
gr

gs 2550 1594 79 78 rc
  18   18 2589 1633 FO
gr

gs 2705 2710 79 78 rc
  18   18 2744 2749 FO
gr

gs 3032 2417 79 79 rc
  18   18 3071 2456 FO
gr

gs 4833 3154 79 79 rc
  18   18 4872 3193 FO
gr

gs 3014 2783 79 79 rc
  18   18 3053 2822 FO
gr

gs 2444 2581 79 79 rc
  18   18 2483 2620 FO
gr

gs 5199 2487 79 79 rc
  18   18 5238 2526 FO
gr

gs 2691 1608 79 79 rc
  18   18 2730 1647 FO
gr

gs 3333 2191 79 79 rc
  18   18 3372 2230 FO
gr

gs 4843 3110 79 79 rc
  18   18 4882 3149 FO
gr

gs 2781 847 79 79 rc
  18   18 2820  886 FO
gr

gs 4202 3870 79 79 rc
  18   18 4241 3909 FO
gr

gs 2976 1656 79 78 rc
  18   18 3015 1694 FO
gr

gs 4901 3695 78 79 rc
  18   18 4940 3734 FO
gr

gs 3546 1915 79 79 rc
  18   18 3585 1954 FO
gr

gs 4126 3195 79 79 rc
  18   18 4165 3234 FO
gr

gs 4521 3063 79 79 rc
  18   18 4560 3102 FO
gr

gs 5088 3447 79 79 rc
  18   18 5127 3486 FO
gr

gs 3978 3531 79 79 rc
  18   18 4017 3570 FO
gr

gs 3784 2184 78 78 rc
  18   18 3822 2222 FO
gr

gs 5044 1915 79 79 rc
  18   18 5083 1954 FO
gr

gs 4267 3416 79 78 rc
  18   18 4306 3455 FO
gr

gs 3936 2934 79 79 rc
  18   18 3975 2973 FO
gr

gs 3158 1976 79 79 rc
  18   18 3197 2015 FO
gr

gs 2960 2166 79 79 rc
  18   18 2999 2205 FO
gr

gs 3065 2639 79 79 rc
  18   18 3104 2678 FO
gr

gs 3648 2260 79 79 rc
  18   18 3687 2299 FO
gr

gs 3824 1854 79 79 rc
  18   18 3863 1893 FO
gr

gs 3017 2335 79 79 rc
  18   18 3056 2374 FO
gr

gs 4287 3207 79 79 rc
  18   18 4326 3246 FO
gr

gs 3963 3185 79 79 rc
  18   18 4002 3224 FO
gr

gs 2724 1986 79 79 rc
  18   18 2763 2025 FO
gr

gs 4344 2728 79 79 rc
  18   18 4383 2767 FO
gr

gs 4523 2379 79 79 rc
  18   18 4562 2418 FO
gr

gs 4264 3418 79 79 rc
  18   18 4303 3457 FO
gr

gs 4794 2277 79 79 rc
  18   18 4833 2316 FO
gr

gs 4078 3140 79 79 rc
  18   18 4117 3179 FO
gr

gs 4679 2905 79 79 rc
  18   18 4718 2944 FO
gr

gs 4516 2983 79 79 rc
  18   18 4555 3022 FO
gr

gs 2661 1261 79 79 rc
  18   18 2700 1300 FO
gr

gs 5090 3215 78 79 rc
  18   18 5129 3254 FO
gr

gs 3262 2557 79 79 rc
  18   18 3301 2596 FO
gr

gs 4885 2808 79 79 rc
  18   18 4924 2847 FO
gr

gs 3445 2255 79 79 rc
  18   18 3484 2294 FO
gr

gs 3154 2765 79 79 rc
  18   18 3193 2804 FO
gr

gs 3832 2052 79 79 rc
  18   18 3871 2091 FO
gr

gs 2417 1998 79 79 rc
  18   18 2456 2037 FO
gr

gs 5382 3917 79 79 rc
  18   18 5421 3956 FO
gr

gs 3318 1976 79 79 rc
  18   18 3357 2015 FO
gr

gs 4017 3201 79 79 rc
  18   18 4056 3240 FO
gr

gs 4834 2724 79 79 rc
  18   18 4873 2763 FO
gr

gs 2563 2156 79 79 rc
  18   18 2602 2195 FO
gr

gs 3274 2596 79 79 rc
  18   18 3313 2635 FO
gr

gs 4254 2908 79 79 rc
  18   18 4293 2947 FO
gr

gs 4020 3728 79 79 rc
  18   18 4059 3767 FO
gr

gs 3074 1702 79 79 rc
  18   18 3113 1741 FO
gr

gs 3043 1602 79 79 rc
  18   18 3082 1641 FO
gr

gs 3813 1627 79 79 rc
  18   18 3852 1666 FO
gr

gs 3287 1906 79 79 rc
  18   18 3326 1945 FO
gr

gs 3483 3360 79 79 rc
  18   18 3522 3399 FO
gr

gs 3732 1826 78 79 rc
  18   18 3770 1865 FO
gr

gs 4378 2838 79 79 rc
  18   18 4417 2877 FO
gr

gs 4250 1714 78 79 rc
  18   18 4288 1753 FO
gr

gs 2881 2176 78 79 rc
  18   18 2920 2215 FO
gr

gs 3870 3933 79 79 rc
  18   18 3909 3972 FO
gr

gs 4892 3480 79 79 rc
  18   18 4931 3519 FO
gr

gs 3260 1536 79 79 rc
  18   18 3299 1575 FO
gr

gs 2969 1979 79 79 rc
  18   18 3008 2018 FO
gr

gs 4590 2737 79 79 rc
  18   18 4629 2776 FO
gr

gs 3286 1970 78 79 rc
  18   18 3325 2009 FO
gr

gs 3215 1406 78 79 rc
  18   18 3253 1445 FO
gr

gs 3752 1891 79 79 rc
  18   18 3791 1930 FO
gr

gs 4130 3385 78 79 rc
  18   18 4169 3424 FO
gr

gs 2408 1736 79 79 rc
  18   18 2447 1775 FO
gr

gs 2556 1786 79 79 rc
  18   18 2595 1825 FO
gr

gs 3944 3726 78 79 rc
  18   18 3983 3765 FO
gr

gs 3785 2272 79 79 rc
  18   18 3824 2311 FO
gr

gs 2869 2780 79 79 rc
  18   18 2908 2819 FO
gr

gs 3211 1962 79 79 rc
  18   18 3250 2001 FO
gr

gs 3338 2145 78 79 rc
  18   18 3377 2184 FO
gr

gs 4222 3336 79 78 rc
  18   18 4261 3375 FO
gr

gs 3554 4333 78 78 rc
  18   18 3593 4372 FO
gr

gs 2829 2316 79 79 rc
  18   18 2868 2355 FO
gr

gs 3342 3651 78 79 rc
  18   18 3381 3690 FO
gr

gs 4539 3541 79 79 rc
  18   18 4578 3580 FO
gr

gs 4961 3892 79 79 rc
  18   18 5000 3931 FO
gr

gs 3496 2079 79 79 rc
  18   18 3535 2118 FO
gr

gs 4205 1760 79 79 rc
  18   18 4244 1799 FO
gr

gs 2411 2775 78 79 rc
  18   18 2449 2814 FO
gr

gs 3032 2749 79 78 rc
  18   18 3071 2787 FO
gr

gs 2664 1787 79 79 rc
  18   18 2703 1826 FO
gr

gs 4737 2054 79 79 rc
  18   18 4776 2093 FO
gr

gs 3488 2378 79 79 rc
  18   18 3527 2417 FO
gr

gs 4536 2877 79 78 rc
  18   18 4575 2916 FO
gr

gs 4985 2728 79 79 rc
  18   18 5024 2767 FO
gr

gs 3851 3050 79 79 rc
  18   18 3890 3089 FO
gr

gs 4727 2931 79 79 rc
  18   18 4766 2970 FO
gr

gs 2382 2296 79 79 rc
  18   18 2421 2335 FO
gr

gs 4312 2949 79 79 rc
  18   18 4351 2988 FO
gr

gs 2450 2490 79 79 rc
  18   18 2489 2529 FO
gr

gs 4101 2936 79 79 rc
  18   18 4140 2975 FO
gr

gs 2937 2019 79 78 rc
  18   18 2976 2057 FO
gr

gs 2346 2296 79 79 rc
  18   18 2385 2335 FO
gr

gs 4768 3483 79 79 rc
  18   18 4807 3522 FO
gr

gs 3458 2416 79 79 rc
  18   18 3497 2455 FO
gr

gs 4480 2936 79 79 rc
  18   18 4519 2975 FO
gr

gs 4153 3332 79 79 rc
  18   18 4192 3371 FO
gr

gs 3379 1466 79 79 rc
  18   18 3418 1505 FO
gr

gs 4866 2892 79 79 rc
  18   18 4905 2931 FO
gr

gs 4410 2680 79 78 rc
  18   18 4449 2719 FO
gr

gs 4755 3456 79 79 rc
  18   18 4794 3495 FO
gr

gs 3047 2258 79 79 rc
  18   18 3086 2297 FO
gr

gs 4617 2348 79 78 rc
  18   18 4656 2387 FO
gr

gs 5058 2693 79 79 rc
  18   18 5097 2732 FO
gr

gs 4431 2836 79 79 rc
  18   18 4470 2875 FO
gr

gs 4019 3094 78 79 rc
  18   18 4057 3133 FO
gr

gs 3432 1400 79 79 rc
  18   18 3471 1439 FO
gr

gs 5223 3147 79 79 rc
  18   18 5262 3186 FO
gr

gs 4423 3514 79 79 rc
  18   18 4462 3553 FO
gr

gs 3975 3686 78 79 rc
  18   18 4014 3725 FO
gr

gs 3642 798 79 79 rc
  18   18 3681  837 FO
gr

gs 2205 1527 79 79 rc
  18   18 2244 1566 FO
gr

gs 3359 2204 78 79 rc
  18   18 3398 2243 FO
gr

gs 3992 2936 79 78 rc
  18   18 4031 2975 FO
gr

gs 3024 2114 78 79 rc
  18   18 3063 2153 FO
gr

gs 4149 3302 78 79 rc
  18   18 4188 3341 FO
gr

gs 1673 2199 79 79 rc
  18   18 1712 2238 FO
gr

gs 3851 3257 79 79 rc
  18   18 3890 3296 FO
gr

gs 3330 1913 79 79 rc
  18   18 3369 1952 FO
gr

gs 4274 3073 79 79 rc
  18   18 4313 3112 FO
gr

gs 2771 2128 79 79 rc
  18   18 2810 2167 FO
gr

gs 2998 1972 79 79 rc
  18   18 3037 2011 FO
gr

gs 3968 2835 79 78 rc
  18   18 4007 2873 FO
gr

gs 4771 2532 79 78 rc
  18   18 4810 2570 FO
gr

gs 3527 2230 79 78 rc
  18   18 3566 2269 FO
gr

gs 4325 3619 79 79 rc
  18   18 4364 3658 FO
gr

gs 3740 3155 79 79 rc
  18   18 3779 3194 FO
gr

gs 3309 2238 79 79 rc
  18   18 3348 2277 FO
gr

gs 3054 1730 78 79 rc
  18   18 3092 1769 FO
gr

gs 4455 3350 79 79 rc
  18   18 4494 3389 FO
gr

gs 3678 2281 79 79 rc
  18   18 3717 2320 FO
gr

gs 4532 2389 79 79 rc
  18   18 4571 2428 FO
gr

gs 3087 2045 78 79 rc
  18   18 3125 2084 FO
gr

gs 3224 2199 79 79 rc
  18   18 3263 2238 FO
gr

gs 4507 2801 79 79 rc
  18   18 4546 2840 FO
gr

gs 4815 3431 79 79 rc
  18   18 4854 3470 FO
gr

gs 4698 3079 79 79 rc
  18   18 4737 3118 FO
gr

gs 3057 1843 79 79 rc
  18   18 3096 1882 FO
gr

gs 4892 2795 79 79 rc
  18   18 4931 2834 FO
gr

gs 5230 3416 79 78 rc
  18   18 5269 3455 FO
gr

gs 5027 2588 79 79 rc
  18   18 5066 2627 FO
gr

gs 3613 3240 79 79 rc
  18   18 3652 3279 FO
gr

gs 2986 1802 78 79 rc
  18   18 3025 1841 FO
gr

gs 4324 3525 79 79 rc
  18   18 4363 3564 FO
gr

gs 3473 1607 79 79 rc
  18   18 3512 1646 FO
gr

gs 4716 2799 79 79 rc
  18   18 4755 2838 FO
gr

gs 4734 2499 79 79 rc
  18   18 4773 2538 FO
gr

gs 5062 2705 79 79 rc
  18   18 5101 2744 FO
gr

gs 3186 1981 78 79 rc
  18   18 3224 2020 FO
gr

gs 2659 3859 79 79 rc
  18   18 2698 3898 FO
gr

gs 2816 1282 79 78 rc
  18   18 2855 1321 FO
gr

gs 4789 2375 78 79 rc
  18   18 4827 2414 FO
gr

gs 4532 3338 79 79 rc
  18   18 4571 3377 FO
gr

gs 2706 2948 79 79 rc
  18   18 2745 2987 FO
gr

gs 4680 2684 79 79 rc
  18   18 4719 2723 FO
gr

gs 3377 2036 79 79 rc
  18   18 3416 2075 FO
gr

gs 4129 4014 79 79 rc
  18   18 4168 4053 FO
gr

gs 4091 3042 79 79 rc
  18   18 4130 3081 FO
gr

gs 3428 1903 79 79 rc
  18   18 3467 1942 FO
gr

gs 5055 3077 79 78 rc
  18   18 5094 3116 FO
gr

gs 3605 2134 79 79 rc
  18   18 3644 2173 FO
gr

gs 3909 2792 79 79 rc
  18   18 3948 2831 FO
gr

gs 2566 1451 79 79 rc
  18   18 2605 1490 FO
gr

gs 4428 2700 79 79 rc
  18   18 4467 2739 FO
gr

gs 4487 2773 79 78 rc
  18   18 4526 2812 FO
gr

gs 4547 3051 79 79 rc
  18   18 4586 3090 FO
gr

gs 4284 2896 79 79 rc
  18   18 4323 2935 FO
gr

gs 3872 3757 78 79 rc
  18   18 3911 3796 FO
gr

gs 3358 2051 79 79 rc
  18   18 3397 2090 FO
gr

gs 4646 2535 79 79 rc
  18   18 4685 2574 FO
gr

gs 3378 1892 79 79 rc
  18   18 3417 1931 FO
gr

gs 4092 3191 79 79 rc
  18   18 4131 3230 FO
gr

gs 4131 3709 79 79 rc
  18   18 4170 3748 FO
gr

gs 4618 2451 78 79 rc
  18   18 4656 2490 FO
gr

gs 3333 1412 79 79 rc
  18   18 3372 1451 FO
gr

gs 4880 3445 79 79 rc
  18   18 4919 3484 FO
gr

gs 2923 2519 79 79 rc
  18   18 2962 2558 FO
gr

gs 3657 2215 79 79 rc
  18   18 3696 2254 FO
gr

gs 3706 2115 79 78 rc
  18   18 3745 2154 FO
gr

gs 3379 2454 79 79 rc
  18   18 3418 2493 FO
gr

gs 3841 3666 79 79 rc
  18   18 3880 3705 FO
gr

gs 3686 1680 79 79 rc
  18   18 3725 1719 FO
gr

gs 4123 2672 79 79 rc
  18   18 4162 2711 FO
gr

gs 4592 3176 79 79 rc
  18   18 4631 3215 FO
gr

gs 2749 2324 79 79 rc
  18   18 2788 2363 FO
gr

gs 5020 2980 79 79 rc
  18   18 5059 3019 FO
gr

gs 4144 3407 79 79 rc
  18   18 4183 3446 FO
gr

gs 4296 2821 79 79 rc
  18   18 4335 2860 FO
gr

gs 2352 1587 79 79 rc
  18   18 2391 1626 FO
gr

gs 4675 3273 79 78 rc
  18   18 4714 3311 FO
gr

gs 3752 1772 79 79 rc
  18   18 3791 1811 FO
gr

gs 4143 2823 79 79 rc
  18   18 4182 2862 FO
gr

gs 3599 1811 79 79 rc
  18   18 3638 1850 FO
gr

gs 3664 3349 79 79 rc
  18   18 3703 3388 FO
gr

gs 3971 3499 79 79 rc
  18   18 4010 3538 FO
gr

gs 2837 2968 79 79 rc
  18   18 2876 3007 FO
gr

gs 2429 2965 79 79 rc
  18   18 2468 3004 FO
gr

gs 4092 2834 79 79 rc
  18   18 4131 2873 FO
gr

gs 3511 1588 79 79 rc
  18   18 3550 1627 FO
gr

gs 3080 2023 79 79 rc
  18   18 3119 2062 FO
gr

gs 3316 1440 79 79 rc
  18   18 3355 1479 FO
gr

gs 3937 4193 79 79 rc
  18   18 3976 4232 FO
gr

gs 3306 2192 79 79 rc
  18   18 3345 2231 FO
gr

gs 4523 2832 79 79 rc
  18   18 4562 2871 FO
gr

gs 3683 3800 79 79 rc
  18   18 3722 3839 FO
gr

gs 3323 2237 79 78 rc
  18   18 3362 2276 FO
gr

gs 3997 3325 79 79 rc
  18   18 4036 3364 FO
gr

gs 2312 2268 78 79 rc
  18   18 2350 2307 FO
gr

gs 3864 1804 79 79 rc
  18   18 3903 1843 FO
gr

gs 4108 2774 79 79 rc
  18   18 4147 2813 FO
gr

gs 3451 2296 79 79 rc
  18   18 3490 2335 FO
gr

gs 2800 2273 79 79 rc
  18   18 2839 2312 FO
gr

gs 3201 2680 79 79 rc
  18   18 3240 2719 FO
gr

gs 4597 3387 79 79 rc
  18   18 4636 3426 FO
gr

gs 3352 2097 79 79 rc
  18   18 3391 2136 FO
gr

gs 4274 3691 79 79 rc
  18   18 4313 3730 FO
gr

gs 3169 2306 79 79 rc
  18   18 3208 2345 FO
gr

gs 2737 1993 79 79 rc
  18   18 2776 2032 FO
gr

gs 3666 1864 79 79 rc
  18   18 3705 1903 FO
gr

gs 3391 1825 79 79 rc
  18   18 3430 1864 FO
gr

gs 2687 1629 79 78 rc
  18   18 2726 1668 FO
gr

gs 3104 2055 79 79 rc
  18   18 3143 2094 FO
gr

gs 2957 2296 79 79 rc
  18   18 2996 2335 FO
gr

gs 2961 2460 79 79 rc
  18   18 3000 2499 FO
gr

gs 4121 1973 79 79 rc
  18   18 4160 2012 FO
gr

gs 4884 3143 78 79 rc
  18   18 4922 3182 FO
gr

gs 3098 1761 79 79 rc
  18   18 3137 1800 FO
gr

gs 2879 1864 79 79 rc
  18   18 2918 1903 FO
gr

gs 4289 2825 79 79 rc
  18   18 4328 2864 FO
gr

gs 4029 2840 79 79 rc
  18   18 4068 2879 FO
gr

gs 3343 2475 79 79 rc
  18   18 3382 2514 FO
gr

gs 4473 2935 79 79 rc
  18   18 4512 2974 FO
gr

gs 3870 3602 79 79 rc
  18   18 3909 3641 FO
gr

gs 2327 960 79 79 rc
  18   18 2366  999 FO
gr

gs 3293 2181 79 79 rc
  18   18 3332 2220 FO
gr

gs 2870 1913 79 79 rc
  18   18 2909 1952 FO
gr

gs 3693 3018 79 79 rc
  18   18 3732 3057 FO
gr

gs 3855 3155 79 79 rc
  18   18 3894 3194 FO
gr

gs 4198 3272 79 79 rc
  18   18 4237 3311 FO
gr

gs 3458 2296 79 79 rc
  18   18 3497 2335 FO
gr

gs 4930 3021 79 79 rc
  18   18 4969 3060 FO
gr

gs 3170 2052 79 79 rc
  18   18 3209 2091 FO
gr

gs 3467 2387 79 79 rc
  18   18 3506 2426 FO
gr

gs 4253 4085 79 79 rc
  18   18 4292 4124 FO
gr

gs 4162 3394 79 79 rc
  18   18 4201 3433 FO
gr

gs 3224 2403 79 79 rc
  18   18 3263 2442 FO
gr

gs 4199 3065 79 79 rc
  18   18 4238 3104 FO
gr

gs 2182 2268 79 79 rc
  18   18 2221 2307 FO
gr

gs 3296 1944 79 79 rc
  18   18 3335 1983 FO
gr

gs 3842 2952 79 79 rc
  18   18 3881 2991 FO
gr

gs 4279 3522 79 79 rc
  18   18 4318 3561 FO
gr

gs 3926 3055 79 78 rc
  18   18 3965 3094 FO
gr

gs 2684 2153 79 79 rc
  18   18 2723 2192 FO
gr

gs 2839 2336 78 79 rc
  18   18 2878 2375 FO
gr

gs 4288 2878 79 79 rc
  18   18 4327 2917 FO
gr

gs 2847 1862 79 78 rc
  18   18 2886 1900 FO
gr

gs 4196 4066 79 79 rc
  18   18 4235 4105 FO
gr

gs 4124 2788 79 79 rc
  18   18 4163 2827 FO
gr

gs 4639 2581 79 79 rc
  18   18 4678 2620 FO
gr

gs 4959 3483 79 78 rc
  18   18 4998 3521 FO
gr

gs 4988 2956 79 79 rc
  18   18 5027 2995 FO
gr

gs 2750 2306 79 79 rc
  18   18 2789 2345 FO
gr

gs 2954 1679 79 78 rc
  18   18 2993 1717 FO
gr

gs 3914 3371 79 79 rc
  18   18 3953 3410 FO
gr

gs 4754 3588 79 79 rc
  18   18 4793 3627 FO
gr

gs 3786 1943 79 78 rc
  18   18 3825 1982 FO
gr

gs 3872 2841 79 79 rc
  18   18 3911 2880 FO
gr

gs 3819 3062 79 78 rc
  18   18 3858 3101 FO
gr

gs 2690 1584 79 78 rc
  18   18 2729 1623 FO
gr

gs 4072 2009 79 79 rc
  18   18 4111 2048 FO
gr

gs 2661 2609 79 78 rc
  18   18 2700 2648 FO
gr

gs 4660 3316 79 79 rc
  18   18 4699 3355 FO
gr

gs 3557 2024 79 79 rc
  18   18 3596 2063 FO
gr

gs 3001 2113 78 79 rc
  18   18 3040 2152 FO
gr

gs 4764 2978 79 79 rc
  18   18 4803 3017 FO
gr

gs 3491 1936 79 79 rc
  18   18 3530 1975 FO
gr

gs 2899 1813 79 79 rc
  18   18 2938 1852 FO
gr

gs 5738 3029 79 78 rc
  18   18 5777 3068 FO
gr

gs 3411 1913 79 79 rc
  18   18 3450 1952 FO
gr

gs 2354 2186 79 79 rc
  18   18 2393 2225 FO
gr

gs 4390 3391 79 79 rc
  18   18 4429 3430 FO
gr

gs 4486 3119 78 78 rc
  18   18 4524 3157 FO
gr

gs 3161 2481 79 79 rc
  18   18 3200 2520 FO
gr

gs 3354 1988 78 79 rc
  18   18 3393 2027 FO
gr

gs 3995 1550 79 79 rc
  18   18 4034 1589 FO
gr

gs 2963 2056 79 79 rc
  18   18 3002 2095 FO
gr

gs 5064 3158 79 79 rc
  18   18 5103 3197 FO
gr

gs 4401 3747 79 79 rc
  18   18 4440 3786 FO
gr

gs 5376 2642 79 79 rc
  18   18 5415 2681 FO
gr

gs 4417 3088 79 78 rc
  18   18 4456 3127 FO
gr

gs 4414 3162 79 79 rc
  18   18 4453 3201 FO
gr

gs 3161 2275 79 79 rc
  18   18 3200 2314 FO
gr

gs 4912 2582 79 79 rc
  18   18 4951 2621 FO
gr

gs 3522 1459 79 79 rc
  18   18 3561 1498 FO
gr

gs 3153 2411 79 79 rc
  18   18 3192 2450 FO
gr

gs 4612 3833 79 79 rc
  18   18 4651 3872 FO
gr

gs 2980 2471 79 79 rc
  18   18 3019 2510 FO
gr

gs 4064 2730 79 79 rc
  18   18 4103 2769 FO
gr

gs 4071 2662 78 79 rc
  18   18 4109 2701 FO
gr

gs 4237 3297 79 79 rc
  18   18 4276 3336 FO
gr

gs 3415 1248 79 79 rc
  18   18 3454 1287 FO
gr

gs 3840 1379 79 79 rc
  18   18 3879 1418 FO
gr

gs 3419 1517 79 79 rc
  18   18 3458 1556 FO
gr

gs 4736 3871 79 79 rc
  18   18 4775 3910 FO
gr

gs 4239 3091 79 79 rc
  18   18 4278 3130 FO
gr

gs 2794 2063 79 79 rc
  18   18 2833 2102 FO
gr

gs 3447 3764 79 79 rc
  18   18 3486 3803 FO
gr

gs 3585 2959 79 79 rc
  18   18 3624 2998 FO
gr

gs 4405 2384 79 79 rc
  18   18 4444 2423 FO
gr

gs 4513 3030 79 79 rc
  18   18 4552 3069 FO
gr

gs 4612 3044 79 79 rc
  18   18 4651 3083 FO
gr

gs 4662 2386 79 79 rc
  18   18 4701 2425 FO
gr

gs 2745 2226 79 78 rc
  18   18 2784 2265 FO
gr

gs 3462 2341 79 79 rc
  18   18 3501 2380 FO
gr

gs 4156 3837 79 79 rc
  18   18 4195 3876 FO
gr

gs 5064 2307 79 79 rc
  18   18 5103 2346 FO
gr

gs 3692 3359 79 79 rc
  18   18 3731 3398 FO
gr

gs 4509 2646 79 79 rc
  18   18 4548 2685 FO
gr

gs 3605 3468 79 79 rc
  18   18 3644 3507 FO
gr

gs 3693 3586 79 78 rc
  18   18 3732 3625 FO
gr

gs 4206 2878 79 79 rc
  18   18 4245 2917 FO
gr

gs 4813 3245 79 79 rc
  18   18 4852 3284 FO
gr

gs 2940 2438 79 79 rc
  18   18 2979 2477 FO
gr

gs 4366 2839 79 79 rc
  18   18 4405 2878 FO
gr

gs 3957 2852 79 79 rc
  18   18 3996 2891 FO
gr

gs 3596 1801 79 79 rc
  18   18 3635 1840 FO
gr

gs 4199 3217 79 79 rc
  18   18 4238 3256 FO
gr

gs 3005 1954 79 79 rc
  18   18 3044 1993 FO
gr

gs 4376 2658 79 79 rc
  18   18 4415 2697 FO
gr

gs 3423 2247 79 79 rc
  18   18 3462 2286 FO
gr

gs 4645 2750 79 79 rc
  18   18 4684 2789 FO
gr

gs 3770 3759 78 79 rc
  18   18 3808 3798 FO
gr

gs 4313 2926 79 78 rc
  18   18 4352 2964 FO
gr

gs 3885 1326 79 79 rc
  18   18 3924 1365 FO
gr

gs 3551 2350 79 79 rc
  18   18 3590 2389 FO
gr

gs 3455 2397 79 79 rc
  18   18 3494 2436 FO
gr

gs 4256 2715 79 79 rc
  18   18 4295 2754 FO
gr

gs 2917 2052 79 79 rc
  18   18 2956 2091 FO
gr

gs 3959 3724 79 79 rc
  18   18 3998 3763 FO
gr

gs 3450 2299 79 79 rc
  18   18 3489 2338 FO
gr

gs 4160 3537 79 78 rc
  18   18 4199 3576 FO
gr

gs 2584 1893 79 79 rc
  18   18 2623 1932 FO
gr

gs 3303 1807 78 78 rc
  18   18 3341 1845 FO
gr

gs 2450 1793 79 78 rc
  18   18 2489 1832 FO
gr

gs 4113 1677 79 79 rc
  18   18 4152 1716 FO
gr

gs 3406 1954 79 79 rc
  18   18 3445 1993 FO
gr

gs 3611 1486 79 78 rc
  18   18 3650 1524 FO
gr

gs 5373 2985 79 79 rc
  18   18 5412 3024 FO
gr

gs 4714 3090 79 79 rc
  18   18 4753 3129 FO
gr

gs 4368 2974 79 79 rc
  18   18 4407 3013 FO
gr

gs 4612 2245 78 79 rc
  18   18 4651 2284 FO
gr

gs 4294 2493 79 79 rc
  18   18 4333 2532 FO
gr

gs 4638 3728 79 79 rc
  18   18 4677 3767 FO
gr

gs 4409 2250 79 79 rc
  18   18 4448 2289 FO
gr

gs 4269 2666 78 79 rc
  18   18 4307 2705 FO
gr

gs 3682 2010 79 79 rc
  18   18 3721 2049 FO
gr

gs 5175 3378 79 78 rc
  18   18 5214 3417 FO
gr

gs 4232 3531 79 79 rc
  18   18 4271 3570 FO
gr

gs 4225 2506 79 79 rc
  18   18 4264 2545 FO
gr

gs 3576 1193 79 78 rc
  18   18 3615 1232 FO
gr

gs 4652 3182 79 79 rc
  18   18 4691 3221 FO
gr

gs 2203 1532 79 79 rc
  18   18 2242 1571 FO
gr

gs 4031 3479 79 79 rc
  18   18 4070 3518 FO
gr

gs 2645 2754 79 79 rc
  18   18 2684 2793 FO
gr

gs 4921 3081 79 79 rc
  18   18 4960 3120 FO
gr

gs 3395 2529 79 79 rc
  18   18 3434 2568 FO
gr

gs 4061 3069 79 78 rc
  18   18 4100 3107 FO
gr

gs 3835 1160 79 78 rc
  18   18 3874 1198 FO
gr

gs 4672 3043 78 78 rc
  18   18 4711 3081 FO
gr

gs 3618 3902 79 79 rc
  18   18 3657 3941 FO
gr

gs 4015 1428 79 79 rc
  18   18 4054 1467 FO
gr

gs 4177 3147 79 79 rc
  18   18 4216 3186 FO
gr

gs 4430 2716 79 79 rc
  18   18 4469 2755 FO
gr

gs 4477 3391 79 79 rc
  18   18 4516 3430 FO
gr

gs 4068 2658 79 79 rc
  18   18 4107 2697 FO
gr

gs 4740 3668 79 79 rc
  18   18 4779 3707 FO
gr

gs 3154 1261 79 79 rc
  18   18 3193 1300 FO
gr

gs 4867 2425 79 79 rc
  18   18 4906 2464 FO
gr

gs 4104 3300 79 79 rc
  18   18 4143 3339 FO
gr

gs 3912 1394 78 79 rc
  18   18 3951 1433 FO
gr

gs 3050 2287 79 79 rc
  18   18 3089 2326 FO
gr

gs 3687 1573 78 79 rc
  18   18 3726 1612 FO
gr

gs 4741 3370 79 79 rc
  18   18 4780 3409 FO
gr

gs 3259 1805 79 78 rc
  18   18 3298 1843 FO
gr

gs 4599 2571 79 79 rc
  18   18 4638 2610 FO
gr

gs 4901 3519 79 79 rc
  18   18 4940 3558 FO
gr

gs 3837 2987 79 79 rc
  18   18 3876 3026 FO
gr

gs 3265 2320 79 79 rc
  18   18 3304 2359 FO
gr

gs 2842 1717 79 78 rc
  18   18 2881 1756 FO
gr

gs 3124 1932 79 78 rc
  18   18 3163 1970 FO
gr

gs 3287 1852 79 79 rc
  18   18 3326 1891 FO
gr

gs 3389 1668 79 79 rc
  18   18 3428 1707 FO
gr

gs 3754 3762 79 78 rc
  18   18 3793 3801 FO
gr

gs 5043 2801 79 79 rc
  18   18 5082 2840 FO
gr

gs 3007 2313 79 79 rc
  18   18 3046 2352 FO
gr

gs 4145 1717 79 79 rc
  18   18 4184 1756 FO
gr

gs 3605 2201 79 79 rc
  18   18 3644 2240 FO
gr

gs 3332 2020 79 79 rc
  18   18 3371 2059 FO
gr

gs 3286 1730 79 79 rc
  18   18 3325 1769 FO
gr

gs 2723 1973 79 79 rc
  18   18 2762 2012 FO
gr

gs 3743 1676 79 79 rc
  18   18 3782 1715 FO
gr

gs 4590 3453 79 79 rc
  18   18 4629 3492 FO
gr

gs 4080 3714 79 79 rc
  18   18 4119 3753 FO
gr

gs 4921 2657 79 79 rc
  18   18 4960 2696 FO
gr

gs 3835 1948 78 79 rc
  18   18 3874 1987 FO
gr

gs 4083 2715 78 79 rc
  18   18 4122 2754 FO
gr

gs 4465 3450 79 78 rc
  18   18 4504 3488 FO
gr

gs 3484 1120 79 79 rc
  18   18 3523 1159 FO
gr

gs 2923 2140 79 79 rc
  18   18 2962 2179 FO
gr

gs 3216 2097 79 79 rc
  18   18 3255 2136 FO
gr

gs 3486 1721 79 78 rc
  18   18 3525 1759 FO
gr

gs 2937 2255 79 79 rc
  18   18 2976 2294 FO
gr

gs 2826 1602 79 79 rc
  18   18 2865 1641 FO
gr

gs 3134 1927 79 79 rc
  18   18 3173 1966 FO
gr

gs 4999 3585 79 79 rc
  18   18 5038 3624 FO
gr

gs 4238 3503 79 79 rc
  18   18 4277 3542 FO
gr

gs 3621 2153 79 79 rc
  18   18 3660 2192 FO
gr

gs 2876 2456 78 79 rc
  18   18 2915 2495 FO
gr

gs 3254 2049 79 79 rc
  18   18 3293 2088 FO
gr

gs 2650 2473 79 79 rc
  18   18 2689 2512 FO
gr

gs 2889 3053 79 79 rc
  18   18 2928 3092 FO
gr

gs 3537 3594 79 79 rc
  18   18 3576 3633 FO
gr

gs 4497 2886 78 79 rc
  18   18 4535 2925 FO
gr

gs 3743 1800 79 79 rc
  18   18 3782 1839 FO
gr

gs 3296 2282 79 78 rc
  18   18 3335 2321 FO
gr

gs 4575 2909 78 79 rc
  18   18 4613 2948 FO
gr

gs 3218 2175 79 79 rc
  18   18 3257 2214 FO
gr

gs 4164 2881 79 79 rc
  18   18 4203 2920 FO
gr

gs 4950 3034 78 79 rc
  18   18 4989 3073 FO
gr

gs 3879 1394 79 79 rc
  18   18 3918 1433 FO
gr

gs 3989 3251 78 79 rc
  18   18 4028 3290 FO
gr

gs 3011 2286 79 78 rc
  18   18 3050 2324 FO
gr

gs 3751 3069 79 78 rc
  18   18 3790 3108 FO
gr

gs 3811 3111 79 79 rc
  18   18 3850 3150 FO
gr

gs 3946 2697 79 79 rc
  18   18 3985 2736 FO
gr

gs 4027 2754 79 79 rc
  18   18 4066 2793 FO
gr

gs 3590 1992 79 79 rc
  18   18 3629 2031 FO
gr

gs 4618 3039 79 79 rc
  18   18 4657 3078 FO
gr

gs 3520 2312 79 79 rc
  18   18 3559 2351 FO
gr

gs 5079 2522 79 79 rc
  18   18 5118 2561 FO
gr

gs 3836 2946 79 79 rc
  18   18 3875 2985 FO
gr

gs 5312 2829 79 79 rc
  18   18 5351 2868 FO
gr

gs 3333 2182 79 79 rc
  18   18 3372 2221 FO
gr

gs 4680 2281 79 79 rc
  18   18 4719 2320 FO
gr

gs 5150 3836 79 79 rc
  18   18 5189 3875 FO
gr

gs 3514 1347 79 79 rc
  18   18 3553 1386 FO
gr

gs 3508 1944 78 79 rc
  18   18 3546 1983 FO
gr

gs 2189 1927 79 79 rc
  18   18 2228 1966 FO
gr

gs 2806 2038 79 79 rc
  18   18 2845 2077 FO
gr

gs 2266 2277 79 79 rc
  18   18 2305 2316 FO
gr

gs 2578 2554 78 79 rc
  18   18 2617 2593 FO
gr

gs 4773 3326 79 79 rc
  18   18 4812 3365 FO
gr

gs 2783 2608 78 79 rc
  18   18 2821 2647 FO
gr

gs 5040 2992 79 79 rc
  18   18 5079 3031 FO
gr

gs 4494 2979 79 79 rc
  18   18 4533 3018 FO
gr

gs 3678 1716 79 78 rc
  18   18 3717 1754 FO
gr

gs 3350 3507 79 79 rc
  18   18 3389 3546 FO
gr

gs 3288 2401 79 79 rc
  18   18 3327 2440 FO
gr

gs 2958 1803 79 79 rc
  18   18 2997 1842 FO
gr

gs 2928 2135 79 78 rc
  18   18 2967 2173 FO
gr

gs 3347 2407 79 79 rc
  18   18 3386 2446 FO
gr

gs 3999 1598 79 79 rc
  18   18 4038 1637 FO
gr

gs 4785 2386 79 79 rc
  18   18 4824 2425 FO
gr

gs 4871 3465 79 79 rc
  18   18 4910 3504 FO
gr

gs 3239 1703 78 79 rc
  18   18 3278 1742 FO
gr

gs 4784 4088 79 79 rc
  18   18 4823 4127 FO
gr

gs 4347 3954 79 79 rc
  18   18 4386 3993 FO
gr

gs 4931 3194 79 79 rc
  18   18 4970 3233 FO
gr

gs 4125 1373 79 79 rc
  18   18 4164 1412 FO
gr

gs 3840 2842 79 79 rc
  18   18 3879 2881 FO
gr

gs 3569 1227 79 79 rc
  18   18 3608 1266 FO
gr

gs 3252 2537 79 78 rc
  18   18 3291 2576 FO
gr

gs 4459 2976 79 79 rc
  18   18 4498 3015 FO
gr

gs 4685 3121 79 79 rc
  18   18 4724 3160 FO
gr

gs 3922 1168 79 79 rc
  18   18 3961 1207 FO
gr

gs 3530 2333 78 79 rc
  18   18 3569 2372 FO
gr

gs 3413 1876 79 79 rc
  18   18 3452 1915 FO
gr

gs 4979 3064 79 79 rc
  18   18 5018 3103 FO
gr

gs 4251 3492 78 79 rc
  18   18 4289 3531 FO
gr

gs 4797 2887 79 79 rc
  18   18 4836 2926 FO
gr

gs 2883 2608 79 79 rc
  18   18 2922 2647 FO
gr

gs 3941 3095 79 79 rc
  18   18 3980 3134 FO
gr

gs 4065 3481 79 79 rc
  18   18 4104 3520 FO
gr

gs 4126 3121 79 79 rc
  18   18 4165 3160 FO
gr

gs 3794 3620 79 79 rc
  18   18 3833 3659 FO
gr

gs 4772 2424 79 79 rc
  18   18 4811 2463 FO
gr

gs 3361 2109 79 79 rc
  18   18 3400 2148 FO
gr

gs 2748 2104 79 79 rc
  18   18 2787 2143 FO
gr

gs 3781 1529 79 79 rc
  18   18 3820 1568 FO
gr

gs 4804 2558 79 79 rc
  18   18 4843 2597 FO
gr

gs 3506 3294 79 79 rc
  18   18 3545 3333 FO
gr

gs 4491 2524 79 79 rc
  18   18 4530 2563 FO
gr

gs 3142 2541 79 79 rc
  18   18 3181 2580 FO
gr

gs 3436 2343 79 79 rc
  18   18 3475 2382 FO
gr

gs 4661 3142 79 78 rc
  18   18 4700 3181 FO
gr

gs 2979 2366 79 79 rc
  18   18 3018 2405 FO
gr

gs 2757 2074 79 78 rc
  18   18 2796 2112 FO
gr

gs 3946 2873 79 79 rc
  18   18 3985 2912 FO
gr

gs 3280 2144 78 79 rc
  18   18 3318 2183 FO
gr

gs 2976 2581 79 79 rc
  18   18 3015 2620 FO
gr

gs 3350 2226 78 79 rc
  18   18 3389 2265 FO
gr

gs 4296 1611 79 79 rc
  18   18 4335 1650 FO
gr

gs 3866 2782 79 79 rc
  18   18 3905 2821 FO
gr

gs 3640 2333 78 79 rc
  18   18 3678 2372 FO
gr

gs 5451 3545 79 79 rc
  18   18 5490 3584 FO
gr

gs 2912 2232 79 78 rc
  18   18 2951 2270 FO
gr

gs 5234 3021 79 79 rc
  18   18 5273 3060 FO
gr

gs 3190 1939 79 79 rc
  18   18 3229 1978 FO
gr

gs 4935 1969 79 79 rc
  18   18 4974 2008 FO
gr

gs 2582 1556 79 79 rc
  18   18 2621 1595 FO
gr

gs 4073 3173 79 79 rc
  18   18 4112 3212 FO
gr

gs 3824 1466 79 79 rc
  18   18 3863 1505 FO
gr

gs 4926 3905 79 79 rc
  18   18 4965 3944 FO
gr

gs 4047 3235 79 79 rc
  18   18 4086 3274 FO
gr

gs 4111 2720 79 79 rc
  18   18 4150 2759 FO
gr

gs 2910 2569 78 78 rc
  18   18 2949 2607 FO
gr

gs 2787 2052 79 79 rc
  18   18 2826 2091 FO
gr

gs 5072 3716 79 79 rc
  18   18 5111 3755 FO
gr

gs 3853 3302 79 79 rc
  18   18 3892 3341 FO
gr

gs 4056 2873 79 79 rc
  18   18 4095 2912 FO
gr

gs 3005 1790 79 79 rc
  18   18 3044 1829 FO
gr

gs 4685 3845 79 79 rc
  18   18 4724 3884 FO
gr

gs 3652 3202 79 79 rc
  18   18 3691 3241 FO
gr

gs 2957 2112 79 79 rc
  18   18 2996 2151 FO
gr

gs 2761 2015 79 79 rc
  18   18 2800 2054 FO
gr

gs 5273 3446 79 79 rc
  18   18 5312 3485 FO
gr

gs 3918 1319 79 79 rc
  18   18 3957 1358 FO
gr

gs 3067 2298 79 79 rc
  18   18 3106 2337 FO
gr

gs 2716 2451 79 79 rc
  18   18 2755 2490 FO
gr

gs 4617 3003 79 79 rc
  18   18 4656 3042 FO
gr

gs 3085 2375 79 79 rc
  18   18 3124 2414 FO
gr

gs 5064 2454 79 79 rc
  18   18 5103 2493 FO
gr

gs 4251 3116 79 79 rc
  18   18 4290 3155 FO
gr

gs 2688 2002 79 79 rc
  18   18 2727 2041 FO
gr

gs 4354 3596 79 79 rc
  18   18 4393 3635 FO
gr

gs 4078 1932 79 79 rc
  18   18 4117 1971 FO
gr

gs 3742 1947 79 79 rc
  18   18 3781 1986 FO
gr

gs 3221 2199 79 79 rc
  18   18 3260 2238 FO
gr

gs 2763 2091 79 79 rc
  18   18 2802 2130 FO
gr

gs 4595 3118 79 79 rc
  18   18 4634 3157 FO
gr

gs 4989 3253 79 79 rc
  18   18 5028 3292 FO
gr

gs 2715 1843 79 79 rc
  18   18 2754 1882 FO
gr

gs 2663 2971 79 79 rc
  18   18 2702 3010 FO
gr

gs 3475 1927 79 78 rc
  18   18 3514 1966 FO
gr

gs 4577 3335 79 79 rc
  18   18 4616 3374 FO
gr

gs 3185 1999 79 79 rc
  18   18 3224 2038 FO
gr

gs 3951 3199 79 79 rc
  18   18 3990 3238 FO
gr

gs 3713 1769 79 79 rc
  18   18 3752 1808 FO
gr

gs 2917 2648 79 79 rc
  18   18 2956 2687 FO
gr

gs 3312 2183 79 79 rc
  18   18 3351 2222 FO
gr

gs 4209 1850 78 79 rc
  18   18 4247 1889 FO
gr

gs 3975 2619 79 79 rc
  18   18 4014 2658 FO
gr

gs 4266 3225 79 79 rc
  18   18 4305 3264 FO
gr

gs 4156 3377 79 79 rc
  18   18 4195 3416 FO
gr

gs 4680 2622 79 79 rc
  18   18 4719 2661 FO
gr

gs 4904 2731 79 79 rc
  18   18 4943 2770 FO
gr

gs 2626 2683 79 79 rc
  18   18 2665 2722 FO
gr

gs 4711 2512 79 79 rc
  18   18 4750 2551 FO
gr

gs 3617 3023 79 79 rc
  18   18 3656 3062 FO
gr

gs 3568 1872 79 79 rc
  18   18 3607 1911 FO
gr

gs 3197 2477 79 79 rc
  18   18 3236 2516 FO
gr

gs 4522 2665 79 79 rc
  18   18 4561 2704 FO
gr

gs 3027 2275 79 79 rc
  18   18 3066 2314 FO
gr

gs 4909 3115 79 79 rc
  18   18 4948 3154 FO
gr

gs 3980 1819 78 79 rc
  18   18 4018 1858 FO
gr

gs 2069 2126 79 79 rc
  18   18 2108 2165 FO
gr

gs 4654 2750 79 79 rc
  18   18 4693 2789 FO
gr

gs 4335 3338 79 79 rc
  18   18 4374 3377 FO
gr

gs 3314 2399 79 79 rc
  18   18 3353 2438 FO
gr

gs 4983 3518 79 79 rc
  18   18 5022 3557 FO
gr

gs 3002 2509 79 79 rc
  18   18 3041 2548 FO
gr

gs 5257 3117 79 79 rc
  18   18 5296 3156 FO
gr

gs 3610 3324 79 79 rc
  18   18 3649 3363 FO
gr

gs 4472 2889 79 79 rc
  18   18 4511 2928 FO
gr

gs 3376 2162 78 79 rc
  18   18 3414 2201 FO
gr

gs 3159 2329 79 79 rc
  18   18 3198 2368 FO
gr

gs 3697 3247 78 78 rc
  18   18 3736 3285 FO
gr

gs 4714 3230 79 79 rc
  18   18 4753 3269 FO
gr

gs 3393 3539 79 78 rc
  18   18 3432 3577 FO
gr

gs 4659 3439 79 79 rc
  18   18 4698 3478 FO
gr

gs 3937 3404 78 79 rc
  18   18 3975 3443 FO
gr

gs 3432 1656 79 79 rc
  18   18 3471 1695 FO
gr

gs 4254 2514 79 79 rc
  18   18 4293 2553 FO
gr

gs 4754 3122 79 79 rc
  18   18 4793 3161 FO
gr

gs 2826 1319 79 79 rc
  18   18 2865 1358 FO
gr

gs 4105 3253 79 79 rc
  18   18 4144 3292 FO
gr

gs 2137 2005 79 79 rc
  18   18 2176 2044 FO
gr

gs 2418 2412 78 79 rc
  18   18 2457 2451 FO
gr

gs 3837 3279 79 79 rc
  18   18 3876 3318 FO
gr

gs 3908 1518 78 79 rc
  18   18 3947 1557 FO
gr

gs 2833 2657 79 79 rc
  18   18 2872 2696 FO
gr

gs 3899 2923 79 79 rc
  18   18 3938 2962 FO
gr

gs 4441 2584 79 78 rc
  18   18 4480 2623 FO
gr

gs 4500 2771 79 79 rc
  18   18 4539 2810 FO
gr

gs 3424 3666 79 79 rc
  18   18 3463 3705 FO
gr

gs 3896 1954 79 79 rc
  18   18 3935 1993 FO
gr

gs 3620 3889 79 79 rc
  18   18 3659 3928 FO
gr

gs 2443 2805 79 79 rc
  18   18 2482 2844 FO
gr

gs 2949 2101 79 79 rc
  18   18 2988 2140 FO
gr

gs 3929 2944 79 79 rc
  18   18 3968 2983 FO
gr

gs 3162 1661 79 79 rc
  18   18 3201 1700 FO
gr

gs 3180 1021 78 78 rc
  18   18 3219 1059 FO
gr

gs 3903 3205 79 79 rc
  18   18 3942 3244 FO
gr

gs 3425 2155 79 79 rc
  18   18 3464 2194 FO
gr

gs 3083 2645 79 79 rc
  18   18 3122 2684 FO
gr

gs 2566 2244 79 79 rc
  18   18 2605 2283 FO
gr

gs 3022 2122 79 79 rc
  18   18 3061 2161 FO
gr

gs 3072 2898 79 79 rc
  18   18 3111 2937 FO
gr

gs 3196 2701 79 79 rc
  18   18 3235 2740 FO
gr

gs 2475 2312 78 79 rc
  18   18 2513 2351 FO
gr

gs 1357 2380 79 79 rc
  18   18 1396 2419 FO
gr

gs 3380 2354 79 79 rc
  18   18 3419 2393 FO
gr

gs 4699 3393 78 79 rc
  18   18 4738 3432 FO
gr

gs 4724 2213 79 79 rc
  18   18 4763 2252 FO
gr

gs 3794 1690 79 79 rc
  18   18 3833 1729 FO
gr

gs 4921 3134 79 79 rc
  18   18 4960 3173 FO
gr

gs 3050 1415 79 79 rc
  18   18 3089 1454 FO
gr

gs 4673 3161 79 79 rc
  18   18 4712 3200 FO
gr

gs 4226 2952 79 79 rc
  18   18 4265 2991 FO
gr

gs 2653 2655 79 79 rc
  18   18 2692 2694 FO
gr

gs 3715 1588 79 79 rc
  18   18 3754 1627 FO
gr

gs 4785 3183 78 79 rc
  18   18 4824 3222 FO
gr

gs 4576 2798 79 79 rc
  18   18 4615 2837 FO
gr

gs 2935 2279 79 79 rc
  18   18 2974 2318 FO
gr

gs 3920 3433 79 79 rc
  18   18 3959 3472 FO
gr

gs 3906 3453 78 79 rc
  18   18 3944 3492 FO
gr

gs 2721 2491 79 79 rc
  18   18 2760 2530 FO
gr

gs 3019 2627 79 79 rc
  18   18 3058 2666 FO
gr

gs 4418 3549 79 79 rc
  18   18 4457 3588 FO
gr

gs 4509 2301 79 79 rc
  18   18 4548 2340 FO
gr

gs 3311 2099 79 79 rc
  18   18 3350 2138 FO
gr

gs 3114 1685 78 79 rc
  18   18 3152 1724 FO
gr

gs 4096 4360 79 79 rc
  18   18 4135 4399 FO
gr

gs 3414 2339 79 79 rc
  18   18 3453 2378 FO
gr

gs 2613 2553 79 79 rc
  18   18 2652 2592 FO
gr

gs 3307 1896 79 79 rc
  18   18 3346 1935 FO
gr

gs 3775 1598 79 79 rc
  18   18 3814 1637 FO
gr

gs 4111 2730 79 78 rc
  18   18 4150 2769 FO
gr

gs 3426 2034 78 79 rc
  18   18 3464 2073 FO
gr

gs 3742 2834 79 79 rc
  18   18 3781 2873 FO
gr

gs 2834 2380 79 79 rc
  18   18 2873 2419 FO
gr

gs 3551 1659 79 79 rc
  18   18 3590 1698 FO
gr

gs 2818 2063 79 79 rc
  18   18 2857 2102 FO
gr

gs 3722 3401 79 79 rc
  18   18 3761 3440 FO
gr

gs 3074 1057 79 79 rc
  18   18 3113 1096 FO
gr

gs 2723 1995 79 79 rc
  18   18 2762 2034 FO
gr

gs 3295 1939 79 79 rc
  18   18 3334 1978 FO
gr

gs 3595 3410 79 78 rc
  18   18 3634 3449 FO
gr

gs 3787 2207 79 79 rc
  18   18 3826 2246 FO
gr

gs 2966 2855 79 79 rc
  18   18 3005 2894 FO
gr

gs 3651 1845 79 79 rc
  18   18 3690 1884 FO
gr

gs 3432 798 79 79 rc
  18   18 3471  837 FO
gr

gs 3274 2244 79 79 rc
  18   18 3313 2283 FO
gr

gs 3403 3183 79 78 rc
  18   18 3442 3221 FO
gr

gs 4547 3016 79 79 rc
  18   18 4586 3055 FO
gr

gs 3664 2906 78 79 rc
  18   18 3703 2945 FO
gr

gs 3682 3452 79 79 rc
  18   18 3721 3491 FO
gr

gs 2558 2367 79 79 rc
  18   18 2597 2406 FO
gr

gs 3333 2189 79 79 rc
  18   18 3372 2228 FO
gr

gs 5064 3395 79 79 rc
  18   18 5103 3434 FO
gr

gs 4688 2852 79 79 rc
  18   18 4727 2891 FO
gr

gs 5028 2318 79 79 rc
  18   18 5067 2357 FO
gr

gs 3307 3405 79 79 rc
  18   18 3346 3444 FO
gr

gs 3023 2218 79 79 rc
  18   18 3062 2257 FO
gr

gs 3487 3303 79 78 rc
  18   18 3526 3342 FO
gr

gs 3006 2510 79 79 rc
  18   18 3045 2549 FO
gr

gs 3811 1414 79 79 rc
  18   18 3850 1453 FO
gr

gs 3003 1915 79 79 rc
  18   18 3042 1954 FO
gr

gs 3601 3244 79 79 rc
  18   18 3640 3283 FO
gr

gs 4025 3230 79 79 rc
  18   18 4064 3269 FO
gr

gs 4555 3096 79 79 rc
  18   18 4594 3135 FO
gr

gs 4321 3290 79 79 rc
  18   18 4360 3329 FO
gr

gs 4421 3340 79 79 rc
  18   18 4460 3379 FO
gr

gs 4418 2679 79 78 rc
  18   18 4457 2717 FO
gr

gs 2759 2403 79 79 rc
  18   18 2798 2442 FO
gr

gs 3610 1821 79 79 rc
  18   18 3649 1860 FO
gr

gs 3781 1926 78 79 rc
  18   18 3819 1965 FO
gr

gs 3805 1995 79 79 rc
  18   18 3844 2034 FO
gr

gs 3918 3844 79 79 rc
  18   18 3957 3883 FO
gr

gs 3847 3045 79 79 rc
  18   18 3886 3084 FO
gr

gs 3520 2055 79 79 rc
  18   18 3559 2094 FO
gr

gs 4929 2078 79 79 rc
  18   18 4968 2117 FO
gr

gs 3634 3707 79 79 rc
  18   18 3673 3746 FO
gr

gs 3261 2269 79 79 rc
  18   18 3300 2308 FO
gr

gs 3853 3223 79 79 rc
  18   18 3892 3262 FO
gr

gs 2766 902 78 79 rc
  18   18 2805  941 FO
gr

gs 3193 1190 79 78 rc
  18   18 3232 1229 FO
gr

gs 2624 2095 79 79 rc
  18   18 2663 2134 FO
gr

gs 4728 3389 79 79 rc
  18   18 4767 3428 FO
gr

gs 3338 3422 79 79 rc
  18   18 3377 3461 FO
gr

gs 4359 2549 79 79 rc
  18   18 4398 2588 FO
gr

gs 4208 3517 79 79 rc
  18   18 4247 3556 FO
gr

gs 3060 2010 79 79 rc
  18   18 3099 2049 FO
gr

gs 3839 1996 79 79 rc
  18   18 3878 2035 FO
gr

gs 3301 2213 79 79 rc
  18   18 3340 2252 FO
gr

gs 4078 1102 79 79 rc
  18   18 4117 1141 FO
gr

gs 3827 3411 79 79 rc
  18   18 3866 3450 FO
gr

gs 3157 2137 79 79 rc
  18   18 3196 2176 FO
gr

gs 2965 2443 79 79 rc
  18   18 3004 2482 FO
gr

gs 2934 2230 78 79 rc
  18   18 2972 2269 FO
gr

gs 3348 1852 79 79 rc
  18   18 3387 1891 FO
gr

gs 2896 1979 79 79 rc
  18   18 2935 2018 FO
gr

gs 4067 2906 79 79 rc
  18   18 4106 2945 FO
gr

gs 3461 2000 79 79 rc
  18   18 3500 2039 FO
gr

gs 3812 1872 79 79 rc
  18   18 3851 1911 FO
gr

gs 3515 3396 79 79 rc
  18   18 3554 3435 FO
gr

gs 3395 3288 79 79 rc
  18   18 3434 3327 FO
gr

gs 4284 3035 79 78 rc
  18   18 4323 3073 FO
gr

gs 4172 2976 79 79 rc
  18   18 4211 3015 FO
gr

gs 3311 2363 79 79 rc
  18   18 3350 2402 FO
gr

gs 3206 1825 79 79 rc
  18   18 3245 1864 FO
gr

gs 3745 2132 78 79 rc
  18   18 3783 2171 FO
gr

gs 3923 2171 79 79 rc
  18   18 3962 2210 FO
gr

gs 3617 2958 79 79 rc
  18   18 3656 2997 FO
gr

gs 2424 1604 79 79 rc
  18   18 2463 1643 FO
gr

gs 5139 2992 79 79 rc
  18   18 5178 3031 FO
gr

gs 3741 3352 79 79 rc
  18   18 3780 3391 FO
gr

gs 4850 2699 78 79 rc
  18   18 4889 2738 FO
gr

gs 3207 2288 79 78 rc
  18   18 3246 2326 FO
gr

gs 3037 2046 79 78 rc
  18   18 3076 2084 FO
gr

gs 3696 2114 79 79 rc
  18   18 3735 2153 FO
gr

gs 3925 3175 79 79 rc
  18   18 3964 3214 FO
gr

gs 3294 1931 79 79 rc
  18   18 3333 1970 FO
gr

gs 4208 3334 78 79 rc
  18   18 4247 3373 FO
gr

gs 2561 2427 79 79 rc
  18   18 2600 2466 FO
gr

gs 3547 2062 79 79 rc
  18   18 3586 2101 FO
gr

gs 2754 2568 79 79 rc
  18   18 2793 2607 FO
gr

gs 2846 1662 79 79 rc
  18   18 2885 1701 FO
gr

gs 2871 2202 79 79 rc
  18   18 2910 2241 FO
gr

gs 3995 3729 79 79 rc
  18   18 4034 3768 FO
gr

gs 3472 1879 79 79 rc
  18   18 3511 1918 FO
gr

gs 3210 2103 79 79 rc
  18   18 3249 2142 FO
gr

gs 3445 2024 79 79 rc
  18   18 3484 2063 FO
gr

gs 4203 3107 79 79 rc
  18   18 4242 3146 FO
gr

gs 2792 2112 79 79 rc
  18   18 2831 2151 FO
gr

gs 2656 2478 79 79 rc
  18   18 2695 2517 FO
gr

gs 3832 3883 79 79 rc
  18   18 3871 3922 FO
gr

gs 4359 3044 79 79 rc
  18   18 4398 3083 FO
gr

gs 3059 2527 79 78 rc
  18   18 3098 2566 FO
gr

gs 2991 2348 79 79 rc
  18   18 3030 2387 FO
gr

gs 3461 1712 79 78 rc
  18   18 3500 1751 FO
gr

gs 3742 1826 79 79 rc
  18   18 3781 1865 FO
gr

gs 4385 2439 79 79 rc
  18   18 4424 2478 FO
gr

gs 2860 2144 79 79 rc
  18   18 2899 2183 FO
gr

gs 3945 2005 79 79 rc
  18   18 3984 2044 FO
gr

gs 3586 3504 79 79 rc
  18   18 3625 3543 FO
gr

gs 4219 2748 79 79 rc
  18   18 4258 2787 FO
gr

gs 3723 1778 79 79 rc
  18   18 3762 1817 FO
gr

gs 2947 2592 79 79 rc
  18   18 2986 2631 FO
gr

gs 2958 2069 79 79 rc
  18   18 2997 2108 FO
gr

gs 4123 3054 78 79 rc
  18   18 4161 3093 FO
gr

gs 4045 3184 79 79 rc
  18   18 4084 3223 FO
gr

gs 3685 2090 78 79 rc
  18   18 3723 2129 FO
gr

gs 3983 3244 79 79 rc
  18   18 4022 3283 FO
gr

gs 4345 2523 79 79 rc
  18   18 4384 2562 FO
gr

gs 3797 2165 78 79 rc
  18   18 3836 2204 FO
gr

gs 3190 2483 79 79 rc
  18   18 3229 2522 FO
gr

gs 3298 2246 79 78 rc
  18   18 3337 2285 FO
gr

gs 4738 3111 79 79 rc
  18   18 4777 3150 FO
gr

gs 3144 2234 79 79 rc
  18   18 3183 2273 FO
gr

gs 3460 2353 79 78 rc
  18   18 3499 2392 FO
gr

gs 3990 2974 79 79 rc
  18   18 4029 3013 FO
gr

gs 2468 2436 79 79 rc
  18   18 2507 2475 FO
gr

gs 2728 2127 79 79 rc
  18   18 2767 2166 FO
gr

gs 5207 3531 79 79 rc
  18   18 5246 3570 FO
gr

gs 3525 1748 79 79 rc
  18   18 3564 1787 FO
gr

gs 3549 1997 79 79 rc
  18   18 3588 2036 FO
gr

gs 4376 2437 79 79 rc
  18   18 4415 2476 FO
gr

gs 4538 3725 78 79 rc
  18   18 4576 3764 FO
gr

gs 3056 2672 78 79 rc
  18   18 3094 2711 FO
gr

gs 3632 1705 79 79 rc
  18   18 3671 1744 FO
gr

gs 2746 2166 79 79 rc
  18   18 2785 2205 FO
gr

gs 3390 1099 79 79 rc
  18   18 3429 1138 FO
gr

gs 5687 2303 79 79 rc
  18   18 5726 2342 FO
gr

gs 4031 2586 79 79 rc
  18   18 4070 2625 FO
gr

gs 3506 1754 79 79 rc
  18   18 3545 1793 FO
gr

gs 4602 2464 79 79 rc
  18   18 4641 2503 FO
gr

gs 3722 3053 79 79 rc
  18   18 3761 3092 FO
gr

gs 2399 2335 79 79 rc
  18   18 2438 2374 FO
gr

gs 3102 1397 79 79 rc
  18   18 3141 1436 FO
gr

gs 4602 3360 79 79 rc
  18   18 4641 3399 FO
gr

gs 4302 2883 79 79 rc
  18   18 4341 2922 FO
gr

gs 3703 1360 79 79 rc
  18   18 3742 1399 FO
gr

gs 5080 3160 79 79 rc
  18   18 5119 3199 FO
gr

gs 2891 2313 79 79 rc
  18   18 2930 2352 FO
gr

gs 3057 1099 78 79 rc
  18   18 3096 1138 FO
gr

gs 4226 3924 79 79 rc
  18   18 4265 3963 FO
gr

gs 3377 1307 79 79 rc
  18   18 3416 1346 FO
gr

gs 2620 2221 79 79 rc
  18   18 2659 2260 FO
gr

gs 4703 2481 79 79 rc
  18   18 4742 2520 FO
gr

gs 3823 3216 79 79 rc
  18   18 3862 3255 FO
gr

gs 3485 1397 79 79 rc
  18   18 3524 1436 FO
gr

gs 4078 2977 79 79 rc
  18   18 4117 3016 FO
gr

gs 3229 2323 79 79 rc
  18   18 3268 2362 FO
gr

gs 3136 2162 79 79 rc
  18   18 3175 2201 FO
gr

gs 3241 2563 79 79 rc
  18   18 3280 2602 FO
gr

gs 3262 2534 79 79 rc
  18   18 3301 2573 FO
gr

gs 4188 2734 79 79 rc
  18   18 4227 2773 FO
gr

gs 3590 1952 79 79 rc
  18   18 3629 1991 FO
gr

gs 3971 3113 78 79 rc
  18   18 4009 3152 FO
gr

gs 3185 2405 79 79 rc
  18   18 3224 2444 FO
gr

gs 3668 1515 79 79 rc
  18   18 3707 1554 FO
gr

gs 4894 3777 79 79 rc
  18   18 4933 3816 FO
gr

gs 4028 3174 79 79 rc
  18   18 4067 3213 FO
gr

gs 4106 2896 79 79 rc
  18   18 4145 2935 FO
gr

gs 4015 3699 79 79 rc
  18   18 4054 3738 FO
gr

gs 4546 3384 79 79 rc
  18   18 4585 3423 FO
gr

gs 4187 2841 79 79 rc
  18   18 4226 2880 FO
gr

gs 2018 1346 79 79 rc
  18   18 2057 1385 FO
gr

gs 4877 2741 79 79 rc
  18   18 4916 2780 FO
gr

gs 2900 2066 78 79 rc
  18   18 2938 2105 FO
gr

gs 3148 1944 79 79 rc
  18   18 3187 1983 FO
gr

gs 4330 3166 79 79 rc
  18   18 4369 3205 FO
gr

gs 4148 2873 79 79 rc
  18   18 4187 2912 FO
gr

gs 3016 2453 78 79 rc
  18   18 3054 2492 FO
gr

gs 3396 1675 79 79 rc
  18   18 3435 1714 FO
gr

gs 2554 2220 79 79 rc
  18   18 2593 2259 FO
gr

gs 4449 2731 79 79 rc
  18   18 4488 2770 FO
gr

gs 2955 2590 79 79 rc
  18   18 2994 2629 FO
gr

gs 4205 3205 79 79 rc
  18   18 4244 3244 FO
gr

gs 4471 3198 78 79 rc
  18   18 4510 3237 FO
gr

gs 2869 1589 79 79 rc
  18   18 2908 1628 FO
gr

gs 4816 2793 79 79 rc
  18   18 4855 2832 FO
gr

gs 4110 3105 79 79 rc
  18   18 4149 3144 FO
gr

gs 3019 1756 79 78 rc
  18   18 3058 1795 FO
gr

gs 4064 3477 79 79 rc
  18   18 4103 3516 FO
gr

gs 4670 3372 79 79 rc
  18   18 4709 3411 FO
gr

gs 3702 1555 79 79 rc
  18   18 3741 1594 FO
gr

gs 4979 2719 79 79 rc
  18   18 5018 2758 FO
gr

gs 3897 3893 79 78 rc
  18   18 3936 3932 FO
gr

gs 3424 2519 79 79 rc
  18   18 3463 2558 FO
gr

gs 4409 2479 79 79 rc
  18   18 4448 2518 FO
gr

gs 4565 2867 79 79 rc
  18   18 4604 2906 FO
gr

gs 3880 2902 79 79 rc
  18   18 3919 2941 FO
gr

gs 4814 2736 79 79 rc
  18   18 4853 2775 FO
gr

gs 3296 1914 78 78 rc
  18   18 3335 1952 FO
gr

gs 4148 3772 79 79 rc
  18   18 4187 3811 FO
gr

gs 3673 3772 79 79 rc
  18   18 3712 3811 FO
gr

gs 4609 4007 79 79 rc
  18   18 4648 4046 FO
gr

gs 2785 1892 79 79 rc
  18   18 2824 1931 FO
gr

gs 3717 1878 79 79 rc
  18   18 3756 1917 FO
gr

gs 4265 3856 79 79 rc
  18   18 4304 3895 FO
gr

gs 4191 3499 79 79 rc
  18   18 4230 3538 FO
gr

gs 3658 1901 79 79 rc
  18   18 3697 1940 FO
gr

gs 3996 3050 79 79 rc
  18   18 4035 3089 FO
gr

gs 2775 2596 79 79 rc
  18   18 2814 2635 FO
gr

gs 2924 2463 79 78 rc
  18   18 2963 2501 FO
gr

gs 4359 2991 79 79 rc
  18   18 4398 3030 FO
gr

gs 4461 2985 79 79 rc
  18   18 4500 3024 FO
gr

gs 4110 2622 79 79 rc
  18   18 4149 2661 FO
gr

gs 3365 3660 78 79 rc
  18   18 3403 3699 FO
gr

gs 4779 2307 79 79 rc
  18   18 4818 2346 FO
gr

gs 4262 2757 79 79 rc
  18   18 4301 2796 FO
gr

gs 2670 1599 79 79 rc
  18   18 2709 1638 FO
gr

gs 2807 1977 79 79 rc
  18   18 2846 2016 FO
gr

gs 4901 2872 79 79 rc
  18   18 4940 2911 FO
gr

gs 3734 2194 79 79 rc
  18   18 3773 2233 FO
gr

gs 3728 1835 79 79 rc
  18   18 3767 1874 FO
gr

gs 2706 1256 79 78 rc
  18   18 2745 1295 FO
gr

gs 4565 2735 79 79 rc
  18   18 4604 2774 FO
gr

gs 3476 1728 78 79 rc
  18   18 3515 1767 FO
gr

gs 4213 2727 79 79 rc
  18   18 4252 2766 FO
gr

gs 3536 1293 79 79 rc
  18   18 3575 1332 FO
gr

gs 2985 2063 79 79 rc
  18   18 3024 2102 FO
gr

gs 3770 2035 79 79 rc
  18   18 3809 2074 FO
gr

gs 3839 3383 79 79 rc
  18   18 3878 3422 FO
gr

gs 2884 1604 79 79 rc
  18   18 2923 1643 FO
gr

gs 4805 2811 78 79 rc
  18   18 4843 2850 FO
gr

gs 3676 1655 79 79 rc
  18   18 3715 1694 FO
gr

gs 4768 2658 79 79 rc
  18   18 4807 2697 FO
gr

gs 4502 3170 79 79 rc
  18   18 4541 3209 FO
gr

gs 2940 1694 79 78 rc
  18   18 2979 1733 FO
gr

gs 3611 3037 79 79 rc
  18   18 3650 3076 FO
gr

gs 4007 1086 78 78 rc
  18   18 4046 1125 FO
gr

gs 4033 1996 79 78 rc
  18   18 4072 2035 FO
gr

gs 3350 2020 79 78 rc
  18   18 3389 2059 FO
gr

gs 3939 3446 79 79 rc
  18   18 3978 3485 FO
gr

gs 4133 2613 78 79 rc
  18   18 4172 2652 FO
gr

gs 4196 3104 79 79 rc
  18   18 4235 3143 FO
gr

gs 2189 1604 79 78 rc
  18   18 2228 1643 FO
gr

gs 3396 1512 79 79 rc
  18   18 3435 1551 FO
gr

gs 2325 2230 79 79 rc
  18   18 2364 2269 FO
gr

gs 3611 1777 79 79 rc
  18   18 3650 1816 FO
gr

gs 2330 2030 79 79 rc
  18   18 2369 2069 FO
gr

gs 3700 1865 79 79 rc
  18   18 3739 1904 FO
gr

gs 4449 3208 79 79 rc
  18   18 4488 3247 FO
gr

gs 3320 1879 79 79 rc
  18   18 3359 1918 FO
gr

gs 3183 2584 79 79 rc
  18   18 3222 2623 FO
gr

gs 5025 2765 79 79 rc
  18   18 5064 2804 FO
gr

gs 4735 2999 79 79 rc
  18   18 4774 3038 FO
gr

gs 2648 1511 79 79 rc
  18   18 2687 1550 FO
gr

gs 3331 2536 79 79 rc
  18   18 3370 2575 FO
gr

gs 2765 2635 79 79 rc
  18   18 2804 2674 FO
gr

gs 4999 4359 79 79 rc
  18   18 5038 4398 FO
gr

gs 4715 2932 79 79 rc
  18   18 4754 2971 FO
gr

gs 4001 3108 79 79 rc
  18   18 4040 3147 FO
gr

gs 3646 2211 79 79 rc
  18   18 3685 2250 FO
gr

gs 2414 2852 79 79 rc
  18   18 2453 2891 FO
gr

gs 3555 1840 79 79 rc
  18   18 3594 1879 FO
gr

gs 3622 2092 79 78 rc
  18   18 3661 2131 FO
gr

gs 4642 3879 79 79 rc
  18   18 4681 3918 FO
gr

gs 3472 3151 79 79 rc
  18   18 3511 3190 FO
gr

gs 3575 3271 79 79 rc
  18   18 3614 3310 FO
gr

gs 4337 3778 79 79 rc
  18   18 4376 3817 FO
gr

gs 4309 3533 79 79 rc
  18   18 4348 3572 FO
gr

gs 4238 3526 79 79 rc
  18   18 4277 3565 FO
gr

gs 3368 2199 79 79 rc
  18   18 3407 2238 FO
gr

gs 3338 2690 78 78 rc
  18   18 3377 2729 FO
gr

gs 2973 1906 79 79 rc
  18   18 3012 1945 FO
gr

gs 4405 2760 79 79 rc
  18   18 4444 2799 FO
gr

gs 2189 2672 79 78 rc
  18   18 2228 2711 FO
gr

gs 3727 3405 79 79 rc
  18   18 3766 3444 FO
gr

gs 3493 2352 79 79 rc
  18   18 3532 2391 FO
gr

gs 3910 3650 79 79 rc
  18   18 3949 3689 FO
gr

gs 3931 3633 78 79 rc
  18   18 3970 3672 FO
gr

gs 3277 2284 79 79 rc
  18   18 3316 2323 FO
gr

gs 3841 3545 79 79 rc
  18   18 3880 3584 FO
gr

gs 4281 3450 79 79 rc
  18   18 4320 3489 FO
gr

gs 4464 2902 79 79 rc
  18   18 4503 2941 FO
gr

gs 4304 2982 79 79 rc
  18   18 4343 3021 FO
gr

gs 3438 1818 79 79 rc
  18   18 3477 1857 FO
gr

gs 4048 1244 79 79 rc
  18   18 4087 1283 FO
gr

gs 3130 1858 79 79 rc
  18   18 3169 1897 FO
gr

gs 2655 2467 79 79 rc
  18   18 2694 2506 FO
gr

gs 4258 3945 79 79 rc
  18   18 4297 3984 FO
gr

gs 3123 2420 79 79 rc
  18   18 3162 2459 FO
gr

gs 5234 3128 79 79 rc
  18   18 5273 3167 FO
gr

gs 4195 1891 79 79 rc
  18   18 4234 1930 FO
gr

gs 4160 2659 79 79 rc
  18   18 4199 2698 FO
gr

gs 4153 2871 79 79 rc
  18   18 4192 2910 FO
gr

gs 4114 1929 79 79 rc
  18   18 4153 1968 FO
gr

gs 3730 3297 79 79 rc
  18   18 3769 3336 FO
gr

gs 3937 1526 78 79 rc
  18   18 3976 1565 FO
gr

gs 3145 2029 79 78 rc
  18   18 3184 2067 FO
gr

gs 3511 965 79 79 rc
  18   18 3550 1004 FO
gr

gs 3379 2094 79 79 rc
  18   18 3418 2133 FO
gr

gs 4952 2231 78 79 rc
  18   18 4991 2270 FO
gr

gs 3474 1981 79 79 rc
  18   18 3513 2020 FO
gr

gs 4649 2949 79 78 rc
  18   18 4688 2988 FO
gr

gr


end %%Color Dict

eplot
%%EndObject

396 18 moveto
/Helvetica-BoldOblique findfont
[10 0 0 10 0 0] makefont setfont
(Student Version of MATLAB) show

epage
end

showpage

%%Trailer
%%BoundingBox:    73   215   552   589
%%Pages: 001
%%EOF
